xof 0302txt 0064
template Header {
 <3D82AB43-62DA-11cf-AB39-0020AF71E433>
 WORD major;
 WORD minor;
 DWORD flags;
}

template Vector {
 <3D82AB5E-62DA-11cf-AB39-0020AF71E433>
 FLOAT x;
 FLOAT y;
 FLOAT z;
}

template Coords2d {
 <F6F23F44-7686-11cf-8F52-0040333594A3>
 FLOAT u;
 FLOAT v;
}

template Matrix4x4 {
 <F6F23F45-7686-11cf-8F52-0040333594A3>
 array FLOAT matrix[16];
}

template ColorRGBA {
 <35FF44E0-6C7C-11cf-8F52-0040333594A3>
 FLOAT red;
 FLOAT green;
 FLOAT blue;
 FLOAT alpha;
}

template ColorRGB {
 <D3E16E81-7835-11cf-8F52-0040333594A3>
 FLOAT red;
 FLOAT green;
 FLOAT blue;
}

template IndexedColor {
 <1630B820-7842-11cf-8F52-0040333594A3>
 DWORD index;
 ColorRGBA indexColor;
}

template Boolean {
 <4885AE61-78E8-11cf-8F52-0040333594A3>
 WORD truefalse;
}

template Boolean2d {
 <4885AE63-78E8-11cf-8F52-0040333594A3>
 Boolean u;
 Boolean v;
}

template MaterialWrap {
 <4885AE60-78E8-11cf-8F52-0040333594A3>
 Boolean u;
 Boolean v;
}

template TextureFilename {
 <A42790E1-7810-11cf-8F52-0040333594A3>
 STRING filename;
}

template Material {
 <3D82AB4D-62DA-11cf-AB39-0020AF71E433>
 ColorRGBA faceColor;
 FLOAT power;
 ColorRGB specularColor;
 ColorRGB emissiveColor;
 [...]
}

template MeshFace {
 <3D82AB5F-62DA-11cf-AB39-0020AF71E433>
 DWORD nFaceVertexIndices;
 array DWORD faceVertexIndices[nFaceVertexIndices];
}

template MeshFaceWraps {
 <4885AE62-78E8-11cf-8F52-0040333594A3>
 DWORD nFaceWrapValues;
 Boolean2d faceWrapValues;
}

template MeshTextureCoords {
 <F6F23F40-7686-11cf-8F52-0040333594A3>
 DWORD nTextureCoords;
 array Coords2d textureCoords[nTextureCoords];
}

template MeshMaterialList {
 <F6F23F42-7686-11cf-8F52-0040333594A3>
 DWORD nMaterials;
 DWORD nFaceIndexes;
 array DWORD faceIndexes[nFaceIndexes];
 [Material]
}

template MeshNormals {
 <F6F23F43-7686-11cf-8F52-0040333594A3>
 DWORD nNormals;
 array Vector normals[nNormals];
 DWORD nFaceNormals;
 array MeshFace faceNormals[nFaceNormals];
}

template MeshVertexColors {
 <1630B821-7842-11cf-8F52-0040333594A3>
 DWORD nVertexColors;
 array IndexedColor vertexColors[nVertexColors];
}

template Mesh {
 <3D82AB44-62DA-11cf-AB39-0020AF71E433>
 DWORD nVertices;
 array Vector vertices[nVertices];
 DWORD nFaces;
 array MeshFace faces[nFaces];
 [...]
}

Header{
1;
0;
1;
}

Mesh {
 1142;
 0.00000;100.00000;0.00000;,
 1.70371;99.14449;-12.94095;,
 0.00000;99.14449;-13.05262;,
 3.37827;99.14449;-12.60786;,
 4.99502;99.14449;-12.05905;,
 6.52631;99.14449;-11.30390;,
 7.94593;99.14449;-10.35534;,
 9.22960;99.14449;-9.22960;,
 10.35534;99.14449;-7.94593;,
 11.30390;99.14449;-6.52631;,
 12.05905;99.14449;-4.99502;,
 12.60786;99.14449;-3.37827;,
 12.94095;99.14449;-1.70371;,
 13.05262;99.14449;-0.00000;,
 12.94095;99.14449;1.70371;,
 12.60786;99.14449;3.37826;,
 12.05905;99.14449;4.99502;,
 11.30390;99.14449;6.52631;,
 10.35534;99.14449;7.94593;,
 9.22960;99.14449;9.22959;,
 7.94593;99.14449;10.35534;,
 6.52631;99.14449;11.30390;,
 4.99503;99.14449;12.05905;,
 3.37827;99.14449;12.60786;,
 1.70371;99.14449;12.94095;,
 0.00001;99.14449;13.05262;,
 -1.70370;99.14449;12.94095;,
 -3.37826;99.14449;12.60786;,
 -4.99502;99.14449;12.05905;,
 -6.52630;99.14449;11.30390;,
 -7.94593;99.14449;10.35534;,
 -9.22959;99.14449;9.22960;,
 -10.35534;99.14449;7.94594;,
 -11.30390;99.14449;6.52631;,
 -12.05905;99.14449;4.99502;,
 -12.60786;99.14449;3.37827;,
 -12.94095;99.14449;1.70371;,
 -13.05262;99.14449;-0.00001;,
 -12.94095;99.14449;-1.70372;,
 -12.60786;99.14449;-3.37828;,
 -12.05904;99.14449;-4.99504;,
 -11.30389;99.14449;-6.52632;,
 -10.35533;99.14449;-7.94595;,
 -9.22958;99.14449;-9.22961;,
 -7.94591;99.14449;-10.35536;,
 -6.52629;99.14449;-11.30392;,
 -4.99499;99.14449;-12.05906;,
 -3.37823;99.14449;-12.60787;,
 -1.70367;99.14449;-12.94096;,
 0.00000;99.14449;-13.05262;,
 1.70371;99.14449;-12.94095;,
 3.37827;96.59258;-25.66048;,
 0.00000;96.59258;-25.88190;,
 3.37827;99.14449;-12.60786;,
 6.69873;96.59258;-25.00000;,
 4.99502;99.14449;-12.05905;,
 9.90458;96.59258;-23.91176;,
 6.52631;99.14449;-11.30390;,
 12.94095;96.59258;-22.41439;,
 7.94593;99.14449;-10.35534;,
 15.75591;96.59258;-20.53350;,
 9.22960;99.14449;-9.22960;,
 18.30127;96.59258;-18.30127;,
 10.35534;99.14449;-7.94593;,
 20.53349;96.59258;-15.75591;,
 11.30390;99.14449;-6.52631;,
 22.41438;96.59258;-12.94095;,
 12.05905;99.14449;-4.99502;,
 23.91176;96.59258;-9.90458;,
 12.60786;99.14449;-3.37827;,
 25.00000;96.59258;-6.69873;,
 12.94095;99.14449;-1.70371;,
 25.66048;96.59258;-3.37827;,
 13.05262;99.14449;-0.00000;,
 25.88190;96.59258;-0.00001;,
 25.66048;96.59258;3.37826;,
 25.00000;96.59258;6.69872;,
 23.91176;96.59258;9.90457;,
 22.41439;96.59258;12.94095;,
 20.53350;96.59258;15.75590;,
 18.30127;96.59258;18.30127;,
 15.75591;96.59258;20.53349;,
 12.94096;96.59258;22.41438;,
 9.90458;96.59258;23.91176;,
 6.69874;96.59258;25.00000;,
 3.37828;96.59258;25.66048;,
 0.00001;96.59258;25.88190;,
 -3.37826;96.59258;25.66048;,
 -6.69872;96.59258;25.00000;,
 -9.90456;96.59258;23.91177;,
 -12.94094;96.59258;22.41439;,
 -15.75589;96.59258;20.53350;,
 -18.30126;96.59258;18.30128;,
 -20.53349;96.59258;15.75592;,
 -22.41438;96.59258;12.94096;,
 -23.91176;96.59258;9.90458;,
 -25.00000;96.59258;6.69873;,
 -25.66048;96.59258;3.37826;,
 -25.88190;96.59258;-0.00001;,
 -25.66048;96.59258;-3.37828;,
 -24.99999;96.59258;-6.69875;,
 -23.91175;96.59258;-9.90460;,
 -22.41437;96.59258;-12.94098;,
 -20.53347;96.59258;-15.75594;,
 -18.30124;96.59258;-18.30130;,
 -15.75587;96.59258;-20.53353;,
 -12.94090;96.59258;-22.41442;,
 -9.90452;96.59258;-23.91179;,
 -6.69866;96.59258;-25.00002;,
 -3.37819;96.59258;-25.66049;,
 0.00000;96.59258;-25.88190;,
 4.99502;92.38795;-37.94096;,
 0.00000;92.38795;-38.26834;,
 9.90458;92.38795;-36.96438;,
 14.64466;92.38795;-35.35534;,
 19.13417;92.38795;-33.14136;,
 23.29629;92.38795;-30.36032;,
 27.05980;92.38795;-27.05981;,
 30.36032;92.38795;-23.29630;,
 33.14136;92.38795;-19.13418;,
 35.35534;92.38795;-14.64467;,
 36.96438;92.38795;-9.90458;,
 37.94096;92.38795;-4.99503;,
 38.26834;92.38795;-0.00001;,
 37.94096;92.38795;4.99501;,
 36.96439;92.38795;9.90457;,
 35.35534;92.38795;14.64465;,
 33.14136;92.38795;19.13417;,
 30.36032;92.38795;23.29629;,
 27.05981;92.38795;27.05980;,
 23.29630;92.38795;30.36031;,
 19.13418;92.38795;33.14135;,
 14.64467;92.38795;35.35534;,
 9.90459;92.38795;36.96438;,
 4.99504;92.38795;37.94095;,
 0.00001;92.38795;38.26834;,
 -4.99501;92.38795;37.94096;,
 -9.90456;92.38795;36.96439;,
 -14.64464;92.38795;35.35535;,
 -19.13416;92.38795;33.14137;,
 -23.29628;92.38795;30.36033;,
 -27.05979;92.38795;27.05982;,
 -30.36031;92.38795;23.29631;,
 -33.14135;92.38795;19.13418;,
 -35.35534;92.38795;14.64467;,
 -36.96438;92.38795;9.90457;,
 -37.94096;92.38795;4.99501;,
 -38.26834;92.38795;-0.00002;,
 -37.94095;92.38795;-4.99505;,
 -36.96437;92.38795;-9.90461;,
 -35.35532;92.38795;-14.64470;,
 -33.14133;92.38795;-19.13422;,
 -30.36028;92.38795;-23.29634;,
 -27.05976;92.38795;-27.05985;,
 -23.29623;92.38795;-30.36036;,
 -19.13410;92.38795;-33.14140;,
 -14.64458;92.38795;-35.35538;,
 -9.90448;92.38795;-36.96441;,
 -4.99491;92.38795;-37.94097;,
 0.00000;92.38795;-38.26834;,
 6.52631;86.60254;-49.57224;,
 0.00000;86.60254;-50.00000;,
 12.94095;86.60254;-48.29629;,
 19.13417;86.60254;-46.19397;,
 25.00000;86.60254;-43.30127;,
 30.43807;86.60254;-39.66767;,
 35.35534;86.60254;-35.35534;,
 39.66767;86.60254;-30.43807;,
 43.30127;86.60254;-25.00000;,
 46.19397;86.60254;-19.13418;,
 48.29629;86.60254;-12.94096;,
 49.57224;86.60254;-6.52632;,
 50.00000;86.60254;-0.00001;,
 49.57224;86.60254;6.52630;,
 48.29630;86.60254;12.94094;,
 46.19398;86.60254;19.13416;,
 43.30128;86.60254;24.99999;,
 39.66767;86.60254;30.43806;,
 35.35535;86.60254;35.35533;,
 30.43808;86.60254;39.66766;,
 25.00001;86.60254;43.30126;,
 19.13419;86.60254;46.19397;,
 12.94097;86.60254;48.29629;,
 6.52633;86.60254;49.57224;,
 0.00002;86.60254;50.00000;,
 -6.52629;86.60254;49.57225;,
 -12.94093;86.60254;48.29630;,
 -19.13415;86.60254;46.19398;,
 -24.99998;86.60254;43.30128;,
 -30.43805;86.60254;39.66768;,
 -35.35532;86.60254;35.35536;,
 -39.66765;86.60254;30.43810;,
 -43.30126;86.60254;25.00002;,
 -46.19397;86.60254;19.13418;,
 -48.29630;86.60254;12.94095;,
 -49.57224;86.60254;6.52630;,
 -50.00000;86.60254;-0.00002;,
 -49.57224;86.60254;-6.52634;,
 -48.29628;86.60254;-12.94100;,
 -46.19395;86.60254;-19.13422;,
 -43.30124;86.60254;-25.00006;,
 -39.66762;86.60254;-30.43813;,
 -35.35527;86.60254;-35.35540;,
 -30.43799;86.60254;-39.66773;,
 -24.99990;86.60254;-43.30133;,
 -19.13406;86.60254;-46.19402;,
 -12.94083;86.60254;-48.29633;,
 -6.52617;86.60254;-49.57226;,
 0.00000;86.60254;-50.00000;,
 7.94593;79.33533;-60.35534;,
 0.00000;79.33533;-60.87614;,
 15.75591;79.33533;-58.80183;,
 23.29629;79.33533;-56.24222;,
 30.43807;79.33533;-52.72028;,
 37.05905;79.33533;-48.29629;,
 43.04593;79.33533;-43.04594;,
 48.29629;79.33533;-37.05905;,
 52.72028;79.33533;-30.43808;,
 56.24222;79.33533;-23.29630;,
 58.80183;79.33533;-15.75591;,
 60.35534;79.33533;-7.94594;,
 60.87614;79.33533;-0.00001;,
 60.35534;79.33533;7.94592;,
 58.80184;79.33533;15.75589;,
 56.24223;79.33533;23.29628;,
 52.72029;79.33533;30.43806;,
 48.29630;79.33533;37.05904;,
 43.04594;79.33533;43.04592;,
 37.05906;79.33533;48.29628;,
 30.43809;79.33533;52.72028;,
 23.29631;79.33533;56.24221;,
 15.75592;79.33533;58.80183;,
 7.94595;79.33533;60.35534;,
 0.00002;79.33533;60.87614;,
 -7.94591;79.33533;60.35534;,
 -15.75588;79.33533;58.80185;,
 -23.29626;79.33533;56.24223;,
 -30.43805;79.33533;52.72030;,
 -37.05902;79.33533;48.29631;,
 -43.04591;79.33533;43.04596;,
 -48.29627;79.33533;37.05907;,
 -52.72027;79.33533;30.43809;,
 -56.24222;79.33533;23.29630;,
 -58.80184;79.33533;15.75590;,
 -60.35534;79.33533;7.94591;,
 -60.87614;79.33533;-0.00003;,
 -60.35534;79.33533;-7.94597;,
 -58.80182;79.33533;-15.75596;,
 -56.24220;79.33533;-23.29635;,
 -52.72024;79.33533;-30.43814;,
 -48.29623;79.33533;-37.05912;,
 -43.04586;79.33533;-43.04601;,
 -37.05895;79.33533;-48.29636;,
 -30.43796;79.33533;-52.72035;,
 -23.29616;79.33533;-56.24228;,
 -15.75575;79.33533;-58.80188;,
 -7.94576;79.33533;-60.35536;,
 0.00000;79.33533;-60.87614;,
 9.22960;70.71069;-70.10574;,
 0.00000;70.71069;-70.71068;,
 18.30127;70.71069;-68.30127;,
 27.05980;70.71069;-65.32815;,
 35.35534;70.71069;-61.23724;,
 43.04593;70.71069;-56.09855;,
 50.00000;70.71069;-50.00000;,
 56.09855;70.71069;-43.04594;,
 61.23724;70.71069;-35.35534;,
 65.32815;70.71069;-27.05981;,
 68.30127;70.71069;-18.30128;,
 70.10574;70.71069;-9.22961;,
 70.71068;70.71069;-0.00001;,
 70.10574;70.71069;9.22958;,
 68.30127;70.71069;18.30125;,
 65.32816;70.71069;27.05979;,
 61.23725;70.71069;35.35533;,
 56.09856;70.71069;43.04592;,
 50.00001;70.71069;49.99999;,
 43.04595;70.71069;56.09854;,
 35.35536;70.71069;61.23723;,
 27.05983;70.71069;65.32814;,
 18.30129;70.71069;68.30126;,
 9.22962;70.71069;70.10573;,
 0.00003;70.71069;70.71068;,
 -9.22957;70.71069;70.10574;,
 -18.30124;70.71069;68.30128;,
 -27.05977;70.71069;65.32816;,
 -35.35531;70.71069;61.23726;,
 -43.04590;70.71069;56.09858;,
 -49.99997;70.71069;50.00002;,
 -56.09853;70.71069;43.04596;,
 -61.23723;70.71069;35.35536;,
 -65.32815;70.71069;27.05981;,
 -68.30127;70.71069;18.30127;,
 -70.10574;70.71069;9.22958;,
 -70.71068;70.71069;-0.00003;,
 -70.10573;70.71069;-9.22964;,
 -68.30125;70.71069;-18.30133;,
 -65.32812;70.71069;-27.05988;,
 -61.23720;70.71069;-35.35542;,
 -56.09848;70.71069;-43.04602;,
 -49.99991;70.71069;-50.00009;,
 -43.04582;70.71069;-56.09863;,
 -35.35521;70.71069;-61.23732;,
 -27.05965;70.71069;-65.32821;,
 -18.30109;70.71069;-68.30132;,
 -9.22940;70.71069;-70.10576;,
 0.00000;70.71069;-70.71068;,
 10.35534;60.87615;-78.65661;,
 0.00000;60.87615;-79.33533;,
 20.53350;60.87615;-76.63205;,
 30.36032;60.87615;-73.29629;,
 39.66767;60.87615;-68.70641;,
 48.29629;60.87615;-62.94095;,
 56.09855;60.87615;-56.09855;,
 62.94095;60.87615;-48.29630;,
 68.70641;60.87615;-39.66767;,
 73.29629;60.87615;-30.36033;,
 76.63204;60.87615;-20.53350;,
 78.65661;60.87615;-10.35535;,
 79.33533;60.87615;-0.00002;,
 78.65661;60.87615;10.35532;,
 76.63205;60.87615;20.53348;,
 73.29630;60.87615;30.36030;,
 68.70642;60.87615;39.66766;,
 62.94096;60.87615;48.29628;,
 56.09856;60.87615;56.09854;,
 48.29631;60.87615;62.94094;,
 39.66769;60.87615;68.70640;,
 30.36034;60.87615;73.29628;,
 20.53352;60.87615;76.63204;,
 10.35537;60.87615;78.65660;,
 0.00003;60.87615;79.33533;,
 -10.35531;60.87615;78.65662;,
 -20.53346;60.87615;76.63205;,
 -30.36028;60.87615;73.29630;,
 -39.66763;60.87615;68.70644;,
 -48.29626;60.87615;62.94097;,
 -56.09852;60.87615;56.09858;,
 -62.94093;60.87615;48.29633;,
 -68.70640;60.87615;39.66769;,
 -73.29629;60.87615;30.36033;,
 -76.63205;60.87615;20.53349;,
 -78.65661;60.87615;10.35532;,
 -79.33533;60.87615;-0.00004;,
 -78.65660;60.87615;-10.35539;,
 -76.63203;60.87615;-20.53357;,
 -73.29626;60.87615;-30.36040;,
 -68.70636;60.87615;-39.66776;,
 -62.94088;60.87615;-48.29639;,
 -56.09845;60.87615;-56.09865;,
 -48.29617;60.87615;-62.94104;,
 -39.66752;60.87615;-68.70650;,
 -30.36014;60.87615;-73.29636;,
 -20.53329;60.87615;-76.63210;,
 -10.35512;60.87615;-78.65664;,
 0.00000;60.87615;-79.33533;,
 11.30390;50.00001;-85.86164;,
 0.00000;50.00001;-86.60254;,
 22.41439;50.00001;-83.65163;,
 33.14136;50.00001;-80.01031;,
 43.30127;50.00001;-75.00000;,
 52.72028;50.00001;-68.70641;,
 61.23724;50.00001;-61.23725;,
 68.70641;50.00001;-52.72029;,
 74.99999;50.00001;-43.30128;,
 80.01031;50.00001;-33.14137;,
 83.65163;50.00001;-22.41440;,
 85.86164;50.00001;-11.30391;,
 86.60254;50.00001;-0.00002;,
 85.86165;50.00001;11.30388;,
 83.65163;50.00001;22.41437;,
 80.01032;50.00001;33.14133;,
 75.00001;50.00001;43.30125;,
 68.70642;50.00001;52.72027;,
 61.23726;50.00001;61.23723;,
 52.72030;50.00001;68.70640;,
 43.30129;50.00001;74.99998;,
 33.14138;50.00001;80.01030;,
 22.41442;50.00001;83.65162;,
 11.30393;50.00001;85.86163;,
 0.00003;50.00001;86.60254;,
 -11.30386;50.00001;85.86165;,
 -22.41435;50.00001;83.65164;,
 -33.14132;50.00001;80.01033;,
 -43.30124;50.00001;75.00002;,
 -52.72025;50.00001;68.70644;,
 -61.23721;50.00001;61.23727;,
 -68.70638;50.00001;52.72033;,
 -74.99998;50.00001;43.30130;,
 -80.01031;50.00001;33.14137;,
 -83.65163;50.00001;22.41438;,
 -85.86165;50.00001;11.30388;,
 -86.60254;50.00001;-0.00004;,
 -85.86163;50.00001;-11.30396;,
 -83.65161;50.00001;-22.41446;,
 -80.01028;50.00001;-33.14145;,
 -74.99994;50.00001;-43.30137;,
 -68.70634;50.00001;-52.72039;,
 -61.23713;50.00001;-61.23735;,
 -52.72015;50.00001;-68.70652;,
 -43.30111;50.00001;-75.00009;,
 -33.14117;50.00001;-80.01039;,
 -22.41417;50.00001;-83.65169;,
 -11.30366;50.00001;-85.86168;,
 0.00000;50.00001;-86.60254;,
 12.05905;38.26836;-91.59756;,
 0.00000;38.26836;-92.38795;,
 23.91176;38.26836;-89.23991;,
 35.35534;38.26836;-85.35534;,
 46.19397;38.26836;-80.01031;,
 56.24222;38.26836;-73.29629;,
 65.32815;38.26836;-65.32815;,
 73.29629;38.26836;-56.24223;,
 80.01031;38.26836;-46.19398;,
 85.35533;38.26836;-35.35535;,
 89.23990;38.26836;-23.91177;,
 91.59756;38.26836;-12.05906;,
 92.38795;38.26836;-0.00002;,
 91.59756;38.26836;12.05903;,
 89.23991;38.26836;23.91174;,
 85.35535;38.26836;35.35532;,
 80.01031;38.26836;46.19396;,
 73.29630;38.26836;56.24220;,
 65.32816;38.26836;65.32813;,
 56.24224;38.26836;73.29627;,
 46.19400;38.26836;80.01030;,
 35.35537;38.26836;85.35532;,
 23.91179;38.26836;89.23990;,
 12.05908;38.26836;91.59756;,
 0.00004;38.26836;92.38795;,
 -12.05901;38.26836;91.59756;,
 -23.91172;38.26836;89.23992;,
 -35.35530;38.26836;85.35535;,
 -46.19394;38.26836;80.01034;,
 -56.24218;38.26836;73.29632;,
 -65.32811;38.26836;65.32818;,
 -73.29626;38.26836;56.24226;,
 -80.01029;38.26836;46.19400;,
 -85.35533;38.26836;35.35535;,
 -89.23991;38.26836;23.91175;,
 -91.59756;38.26836;12.05902;,
 -92.38795;38.26836;-0.00005;,
 -91.59755;38.26836;-12.05911;,
 -89.23988;38.26836;-23.91184;,
 -85.35529;38.26836;-35.35543;,
 -80.01025;38.26836;-46.19408;,
 -73.29620;38.26836;-56.24234;,
 -65.32803;38.26836;-65.32826;,
 -56.24208;38.26836;-73.29639;,
 -46.19380;38.26836;-80.01041;,
 -35.35513;38.26836;-85.35542;,
 -23.91153;38.26836;-89.23997;,
 -12.05879;38.26836;-91.59760;,
 0.00000;38.26836;-92.38795;,
 12.60786;25.88192;-95.76622;,
 0.00000;25.88192;-96.59258;,
 25.00000;25.88192;-93.30127;,
 36.96438;25.88192;-89.23991;,
 48.29629;25.88192;-83.65163;,
 58.80183;25.88192;-76.63205;,
 68.30127;25.88192;-68.30127;,
 76.63204;25.88192;-58.80184;,
 83.65163;25.88192;-48.29630;,
 89.23991;25.88192;-36.96439;,
 93.30127;25.88192;-25.00001;,
 95.76622;25.88192;-12.60788;,
 96.59258;25.88192;-0.00002;,
 95.76622;25.88192;12.60784;,
 93.30127;25.88192;24.99998;,
 89.23992;25.88192;36.96436;,
 83.65164;25.88192;48.29628;,
 76.63206;25.88192;58.80182;,
 68.30128;25.88192;68.30125;,
 58.80186;25.88192;76.63203;,
 48.29631;25.88192;83.65161;,
 36.96441;25.88192;89.23990;,
 25.00003;25.88192;93.30126;,
 12.60790;25.88192;95.76622;,
 0.00004;25.88192;96.59258;,
 -12.60782;25.88192;95.76622;,
 -24.99996;25.88192;93.30128;,
 -36.96434;25.88192;89.23992;,
 -48.29625;25.88192;83.65166;,
 -58.80180;25.88192;76.63208;,
 -68.30123;25.88192;68.30131;,
 -76.63201;25.88192;58.80188;,
 -83.65161;25.88192;48.29632;,
 -89.23990;25.88192;36.96439;,
 -93.30127;25.88192;24.99999;,
 -95.76622;25.88192;12.60783;,
 -96.59258;25.88192;-0.00005;,
 -95.76621;25.88192;-12.60793;,
 -93.30125;25.88192;-25.00008;,
 -89.23987;25.88192;-36.96448;,
 -83.65157;25.88192;-48.29640;,
 -76.63196;25.88192;-58.80196;,
 -68.30115;25.88192;-68.30139;,
 -58.80169;25.88192;-76.63216;,
 -48.29611;25.88192;-83.65173;,
 -36.96416;25.88192;-89.24000;,
 -24.99976;25.88192;-93.30133;,
 -12.60759;25.88192;-95.76625;,
 0.00000;25.88192;-96.59258;,
 12.94095;13.05264;-98.29629;,
 0.00000;13.05264;-99.14449;,
 25.66048;13.05264;-95.76622;,
 37.94095;13.05264;-91.59756;,
 49.57224;13.05264;-85.86164;,
 60.35534;13.05264;-78.65661;,
 70.10573;13.05264;-70.10574;,
 78.65660;13.05264;-60.35534;,
 85.86163;13.05264;-49.57225;,
 91.59755;13.05264;-37.94096;,
 95.76621;13.05264;-25.66049;,
 98.29629;13.05264;-12.94097;,
 99.14449;13.05264;-0.00002;,
 98.29629;13.05264;12.94093;,
 95.76622;13.05264;25.66046;,
 91.59757;13.05264;37.94093;,
 85.86165;13.05264;49.57223;,
 78.65662;13.05264;60.35532;,
 70.10575;13.05264;70.10572;,
 60.35536;13.05264;78.65659;,
 49.57227;13.05264;85.86163;,
 37.94098;13.05264;91.59754;,
 25.66051;13.05264;95.76621;,
 12.94099;13.05264;98.29629;,
 0.00004;13.05264;99.14449;,
 -12.94091;13.05264;98.29629;,
 -25.66044;13.05264;95.76623;,
 -37.94091;13.05264;91.59757;,
 -49.57220;13.05264;85.86166;,
 -60.35529;13.05264;78.65664;,
 -70.10570;13.05264;70.10577;,
 -78.65657;13.05264;60.35538;,
 -85.86163;13.05264;49.57227;,
 -91.59755;13.05264;37.94096;,
 -95.76622;13.05264;25.66047;,
 -98.29629;13.05264;12.94093;,
 -99.14449;13.05264;-0.00005;,
 -98.29628;13.05264;-12.94102;,
 -95.76619;13.05264;-25.66057;,
 -91.59752;13.05264;-37.94106;,
 -85.86157;13.05264;-49.57236;,
 -78.65651;13.05264;-60.35546;,
 -70.10561;13.05264;-70.10586;,
 -60.35518;13.05264;-78.65673;,
 -49.57205;13.05264;-85.86175;,
 -37.94073;13.05264;-91.59765;,
 -25.66023;13.05264;-95.76628;,
 -12.94067;13.05264;-98.29633;,
 0.00000;13.05264;-99.14449;,
 13.05262;0.00002;-99.14449;,
 0.00000;0.00002;-100.00000;,
 25.88190;0.00002;-96.59258;,
 38.26834;0.00002;-92.38795;,
 50.00000;0.00002;-86.60254;,
 60.87614;0.00002;-79.33533;,
 70.71068;0.00002;-70.71069;,
 79.33533;0.00002;-60.87615;,
 86.60254;0.00002;-50.00001;,
 92.38795;0.00002;-38.26836;,
 96.59258;0.00002;-25.88192;,
 99.14449;0.00002;-13.05264;,
 100.00000;0.00002;-0.00002;,
 99.14449;0.00002;13.05260;,
 96.59259;0.00002;25.88188;,
 92.38796;0.00002;38.26832;,
 86.60255;0.00002;49.99998;,
 79.33534;0.00002;60.87613;,
 70.71069;0.00002;70.71066;,
 60.87616;0.00002;79.33532;,
 50.00002;0.00002;86.60252;,
 38.26837;0.00002;92.38794;,
 25.88194;0.00002;96.59258;,
 13.05266;0.00002;99.14449;,
 0.00004;0.00002;100.00000;,
 -13.05258;0.00002;99.14449;,
 -25.88186;0.00002;96.59259;,
 -38.26830;0.00002;92.38797;,
 -49.99996;0.00002;86.60256;,
 -60.87610;0.00002;79.33537;,
 -70.71064;0.00002;70.71072;,
 -79.33530;0.00002;60.87619;,
 -86.60252;0.00002;50.00003;,
 -92.38795;0.00002;38.26836;,
 -96.59259;0.00002;25.88190;,
 -99.14449;0.00002;13.05259;,
 -100.00000;0.00002;-0.00005;,
 -99.14448;0.00002;-13.05269;,
 -96.59256;0.00002;-25.88199;,
 -92.38791;0.00002;-38.26845;,
 -86.60247;0.00002;-50.00011;,
 -79.33524;0.00002;-60.87627;,
 -70.71055;0.00002;-70.71080;,
 -60.87599;0.00002;-79.33546;,
 -49.99981;0.00002;-86.60265;,
 -38.26812;0.00002;-92.38805;,
 -25.88165;0.00002;-96.59265;,
 -13.05234;0.00002;-99.14452;,
 0.00000;0.00002;-100.00000;,
 12.94095;-13.05260;-98.29630;,
 0.00000;-13.05260;-99.14449;,
 25.66048;-13.05260;-95.76622;,
 37.94096;-13.05260;-91.59756;,
 49.57224;-13.05260;-85.86165;,
 60.35534;-13.05260;-78.65662;,
 70.10574;-13.05260;-70.10574;,
 78.65661;-13.05260;-60.35535;,
 85.86164;-13.05260;-49.57225;,
 91.59756;-13.05260;-37.94096;,
 95.76622;-13.05260;-25.66050;,
 98.29629;-13.05260;-12.94097;,
 99.14449;-13.05260;-0.00002;,
 98.29630;-13.05260;12.94093;,
 95.76623;-13.05260;25.66046;,
 91.59757;-13.05260;37.94093;,
 85.86166;-13.05260;49.57223;,
 78.65662;-13.05260;60.35532;,
 70.10576;-13.05260;70.10573;,
 60.35536;-13.05260;78.65659;,
 49.57227;-13.05260;85.86163;,
 37.94098;-13.05260;91.59755;,
 25.66051;-13.05260;95.76621;,
 12.94099;-13.05260;98.29629;,
 0.00004;-13.05260;99.14449;,
 -12.94091;-13.05260;98.29630;,
 -25.66044;-13.05260;95.76624;,
 -37.94091;-13.05260;91.59758;,
 -49.57220;-13.05260;85.86167;,
 -60.35530;-13.05260;78.65665;,
 -70.10571;-13.05260;70.10578;,
 -78.65658;-13.05260;60.35538;,
 -85.86163;-13.05260;49.57227;,
 -91.59756;-13.05260;37.94097;,
 -95.76622;-13.05260;25.66048;,
 -98.29630;-13.05260;12.94093;,
 -99.14449;-13.05260;-0.00005;,
 -98.29629;-13.05260;-12.94102;,
 -95.76620;-13.05260;-25.66057;,
 -91.59752;-13.05260;-37.94106;,
 -85.86158;-13.05260;-49.57236;,
 -78.65652;-13.05260;-60.35546;,
 -70.10562;-13.05260;-70.10587;,
 -60.35519;-13.05260;-78.65673;,
 -49.57206;-13.05260;-85.86176;,
 -37.94073;-13.05260;-91.59766;,
 -25.66023;-13.05260;-95.76629;,
 -12.94067;-13.05260;-98.29633;,
 0.00000;-13.05260;-99.14449;,
 12.60786;-25.88188;-95.76622;,
 0.00000;-25.88188;-96.59259;,
 25.00000;-25.88188;-93.30127;,
 36.96438;-25.88188;-89.23991;,
 48.29630;-25.88188;-83.65163;,
 58.80184;-25.88188;-76.63205;,
 68.30127;-25.88188;-68.30128;,
 76.63205;-25.88188;-58.80185;,
 83.65163;-25.88188;-48.29630;,
 89.23991;-25.88188;-36.96439;,
 93.30127;-25.88188;-25.00002;,
 95.76622;-25.88188;-12.60788;,
 96.59259;-25.88188;-0.00002;,
 95.76623;-25.88188;12.60784;,
 93.30128;-25.88188;24.99998;,
 89.23992;-25.88188;36.96436;,
 83.65164;-25.88188;48.29628;,
 76.63206;-25.88188;58.80182;,
 68.30129;-25.88188;68.30126;,
 58.80186;-25.88188;76.63203;,
 48.29632;-25.88188;83.65162;,
 36.96441;-25.88188;89.23990;,
 25.00003;-25.88188;93.30127;,
 12.60790;-25.88188;95.76622;,
 0.00004;-25.88188;96.59259;,
 -12.60782;-25.88188;95.76623;,
 -24.99996;-25.88188;93.30128;,
 -36.96434;-25.88188;89.23993;,
 -48.29625;-25.88188;83.65166;,
 -58.80180;-25.88188;76.63208;,
 -68.30124;-25.88188;68.30131;,
 -76.63202;-25.88188;58.80188;,
 -83.65161;-25.88188;48.29632;,
 -89.23991;-25.88188;36.96440;,
 -93.30128;-25.88188;25.00000;,
 -95.76623;-25.88188;12.60784;,
 -96.59259;-25.88188;-0.00005;,
 -95.76622;-25.88188;-12.60793;,
 -93.30125;-25.88188;-25.00009;,
 -89.23987;-25.88188;-36.96448;,
 -83.65157;-25.88188;-48.29641;,
 -76.63197;-25.88188;-58.80196;,
 -68.30116;-25.88188;-68.30139;,
 -58.80169;-25.88188;-76.63216;,
 -48.29611;-25.88188;-83.65174;,
 -36.96417;-25.88188;-89.24001;,
 -24.99976;-25.88188;-93.30134;,
 -12.60759;-25.88188;-95.76626;,
 0.00000;-25.88188;-96.59259;,
 12.05905;-38.26832;-91.59757;,
 0.00000;-38.26832;-92.38796;,
 23.91177;-38.26832;-89.23992;,
 35.35534;-38.26832;-85.35535;,
 46.19398;-38.26832;-80.01031;,
 56.24223;-38.26832;-73.29630;,
 65.32815;-38.26832;-65.32816;,
 73.29630;-38.26832;-56.24223;,
 80.01031;-38.26832;-46.19399;,
 85.35534;-38.26832;-35.35535;,
 89.23991;-38.26832;-23.91178;,
 91.59757;-38.26832;-12.05906;,
 92.38796;-38.26832;-0.00002;,
 91.59757;-38.26832;12.05903;,
 89.23992;-38.26832;23.91174;,
 85.35536;-38.26832;35.35532;,
 80.01033;-38.26832;46.19397;,
 73.29631;-38.26832;56.24221;,
 65.32817;-38.26832;65.32814;,
 56.24224;-38.26832;73.29629;,
 46.19400;-38.26832;80.01031;,
 35.35537;-38.26832;85.35534;,
 23.91179;-38.26832;89.23991;,
 12.05908;-38.26832;91.59757;,
 0.00004;-38.26832;92.38796;,
 -12.05901;-38.26832;91.59757;,
 -23.91172;-38.26832;89.23993;,
 -35.35530;-38.26832;85.35536;,
 -46.19394;-38.26832;80.01035;,
 -56.24219;-38.26832;73.29633;,
 -65.32812;-38.26832;65.32819;,
 -73.29626;-38.26832;56.24227;,
 -80.01031;-38.26832;46.19401;,
 -85.35534;-38.26832;35.35536;,
 -89.23992;-38.26832;23.91176;,
 -91.59757;-38.26832;12.05902;,
 -92.38796;-38.26832;-0.00005;,
 -91.59756;-38.26832;-12.05911;,
 -89.23990;-38.26832;-23.91185;,
 -85.35531;-38.26832;-35.35544;,
 -80.01026;-38.26832;-46.19409;,
 -73.29621;-38.26832;-56.24234;,
 -65.32804;-38.26832;-65.32827;,
 -56.24208;-38.26832;-73.29641;,
 -46.19381;-38.26832;-80.01043;,
 -35.35514;-38.26832;-85.35543;,
 -23.91153;-38.26832;-89.23997;,
 -12.05879;-38.26832;-91.59760;,
 0.00000;-38.26832;-92.38796;,
 11.30390;-49.99998;-85.86166;,
 0.00000;-49.99998;-86.60255;,
 22.41439;-49.99998;-83.65164;,
 33.14136;-49.99998;-80.01032;,
 43.30128;-49.99998;-75.00001;,
 52.72029;-49.99998;-68.70642;,
 61.23725;-49.99998;-61.23725;,
 68.70642;-49.99998;-52.72029;,
 75.00001;-49.99998;-43.30128;,
 80.01031;-49.99998;-33.14137;,
 83.65164;-49.99998;-22.41440;,
 85.86166;-49.99998;-11.30392;,
 86.60255;-49.99998;-0.00002;,
 85.86166;-49.99998;11.30388;,
 83.65164;-49.99998;22.41437;,
 80.01033;-49.99998;33.14134;,
 75.00002;-49.99998;43.30126;,
 68.70644;-49.99998;52.72028;,
 61.23726;-49.99998;61.23723;,
 52.72031;-49.99998;68.70641;,
 43.30130;-49.99998;74.99999;,
 33.14139;-49.99998;80.01031;,
 22.41442;-49.99998;83.65163;,
 11.30393;-49.99998;85.86165;,
 0.00003;-49.99998;86.60255;,
 -11.30387;-49.99998;85.86166;,
 -22.41435;-49.99998;83.65165;,
 -33.14132;-49.99998;80.01034;,
 -43.30124;-49.99998;75.00003;,
 -52.72025;-49.99998;68.70645;,
 -61.23722;-49.99998;61.23728;,
 -68.70639;-49.99998;52.72033;,
 -74.99999;-49.99998;43.30130;,
 -80.01031;-49.99998;33.14137;,
 -83.65164;-49.99998;22.41438;,
 -85.86166;-49.99998;11.30388;,
 -86.60255;-49.99998;-0.00004;,
 -85.86165;-49.99998;-11.30396;,
 -83.65162;-49.99998;-22.41446;,
 -80.01029;-49.99998;-33.14145;,
 -74.99995;-49.99998;-43.30138;,
 -68.70634;-49.99998;-52.72040;,
 -61.23714;-49.99998;-61.23736;,
 -52.72016;-49.99998;-68.70653;,
 -43.30111;-49.99998;-75.00010;,
 -33.14117;-49.99998;-80.01040;,
 -22.41417;-49.99998;-83.65170;,
 -11.30366;-49.99998;-85.86168;,
 0.00000;-49.99998;-86.60255;,
 10.35534;-60.87613;-78.65662;,
 0.00000;-60.87613;-79.33534;,
 20.53350;-60.87613;-76.63206;,
 30.36032;-60.87613;-73.29630;,
 39.66767;-60.87613;-68.70642;,
 48.29630;-60.87613;-62.94096;,
 56.09856;-60.87613;-56.09856;,
 62.94096;-60.87613;-48.29630;,
 68.70642;-60.87613;-39.66768;,
 73.29630;-60.87613;-30.36033;,
 76.63205;-60.87613;-20.53351;,
 78.65662;-60.87613;-10.35535;,
 79.33534;-60.87613;-0.00002;,
 78.65662;-60.87613;10.35532;,
 76.63206;-60.87613;20.53348;,
 73.29631;-60.87613;30.36030;,
 68.70643;-60.87613;39.66766;,
 62.94097;-60.87613;48.29628;,
 56.09858;-60.87613;56.09855;,
 48.29631;-60.87613;62.94095;,
 39.66769;-60.87613;68.70641;,
 30.36034;-60.87613;73.29629;,
 20.53352;-60.87613;76.63205;,
 10.35537;-60.87613;78.65662;,
 0.00003;-60.87613;79.33534;,
 -10.35531;-60.87613;78.65662;,
 -20.53346;-60.87613;76.63206;,
 -30.36029;-60.87613;73.29632;,
 -39.66764;-60.87613;68.70644;,
 -48.29626;-60.87613;62.94099;,
 -56.09853;-60.87613;56.09859;,
 -62.94093;-60.87613;48.29633;,
 -68.70641;-60.87613;39.66769;,
 -73.29630;-60.87613;30.36033;,
 -76.63206;-60.87613;20.53349;,
 -78.65662;-60.87613;10.35532;,
 -79.33534;-60.87613;-0.00004;,
 -78.65662;-60.87613;-10.35540;,
 -76.63204;-60.87613;-20.53357;,
 -73.29626;-60.87613;-30.36040;,
 -68.70637;-60.87613;-39.66776;,
 -62.94088;-60.87613;-48.29639;,
 -56.09846;-60.87613;-56.09866;,
 -48.29617;-60.87613;-62.94106;,
 -39.66752;-60.87613;-68.70651;,
 -30.36014;-60.87613;-73.29637;,
 -20.53330;-60.87613;-76.63211;,
 -10.35512;-60.87613;-78.65665;,
 0.00000;-60.87613;-79.33534;,
 9.22960;-70.71066;-70.10576;,
 0.00000;-70.71066;-70.71069;,
 18.30128;-70.71066;-68.30128;,
 27.05981;-70.71066;-65.32816;,
 35.35535;-70.71066;-61.23726;,
 43.04594;-70.71066;-56.09857;,
 50.00001;-70.71066;-50.00001;,
 56.09856;-70.71066;-43.04595;,
 61.23726;-70.71066;-35.35535;,
 65.32816;-70.71066;-27.05982;,
 68.30128;-70.71066;-18.30128;,
 70.10576;-70.71066;-9.22961;,
 70.71069;-70.71066;-0.00001;,
 70.10576;-70.71066;9.22958;,
 68.30129;-70.71066;18.30126;,
 65.32817;-70.71066;27.05979;,
 61.23726;-70.71066;35.35534;,
 56.09858;-70.71066;43.04593;,
 50.00002;-70.71066;50.00000;,
 43.04596;-70.71066;56.09856;,
 35.35537;-70.71066;61.23725;,
 27.05983;-70.71066;65.32816;,
 18.30130;-70.71066;68.30128;,
 9.22962;-70.71066;70.10575;,
 0.00003;-70.71066;70.71069;,
 -9.22957;-70.71066;70.10576;,
 -18.30124;-70.71066;68.30130;,
 -27.05978;-70.71066;65.32818;,
 -35.35532;-70.71066;61.23727;,
 -43.04591;-70.71066;56.09859;,
 -49.99998;-70.71066;50.00004;,
 -56.09854;-70.71066;43.04598;,
 -61.23725;-70.71066;35.35537;,
 -65.32816;-70.71066;27.05982;,
 -68.30129;-70.71066;18.30127;,
 -70.10576;-70.71066;9.22958;,
 -70.71069;-70.71066;-0.00003;,
 -70.10575;-70.71066;-9.22965;,
 -68.30127;-70.71066;-18.30134;,
 -65.32813;-70.71066;-27.05989;,
 -61.23721;-70.71066;-35.35543;,
 -56.09850;-70.71066;-43.04603;,
 -49.99992;-70.71066;-50.00010;,
 -43.04583;-70.71066;-56.09865;,
 -35.35521;-70.71066;-61.23734;,
 -27.05965;-70.71066;-65.32823;,
 -18.30110;-70.71066;-68.30133;,
 -9.22940;-70.71066;-70.10578;,
 0.00000;-70.71066;-70.71069;,
 7.94593;-79.33532;-60.35536;,
 0.00000;-79.33532;-60.87616;,
 15.75591;-79.33532;-58.80185;,
 23.29630;-79.33532;-56.24224;,
 30.43808;-79.33532;-52.72030;,
 37.05906;-79.33532;-48.29631;,
 43.04594;-79.33532;-43.04595;,
 48.29630;-79.33532;-37.05906;,
 52.72029;-79.33532;-30.43809;,
 56.24223;-79.33532;-23.29630;,
 58.80185;-79.33532;-15.75592;,
 60.35535;-79.33532;-7.94594;,
 60.87616;-79.33532;-0.00001;,
 60.35536;-79.33532;7.94592;,
 58.80186;-79.33532;15.75589;,
 56.24224;-79.33532;23.29628;,
 52.72031;-79.33532;30.43807;,
 48.29631;-79.33532;37.05905;,
 43.04596;-79.33532;43.04594;,
 37.05907;-79.33532;48.29630;,
 30.43810;-79.33532;52.72029;,
 23.29632;-79.33532;56.24223;,
 15.75593;-79.33532;58.80185;,
 7.94596;-79.33532;60.35535;,
 0.00002;-79.33532;60.87616;,
 -7.94591;-79.33532;60.35536;,
 -15.75588;-79.33532;58.80186;,
 -23.29627;-79.33532;56.24225;,
 -30.43805;-79.33532;52.72031;,
 -37.05903;-79.33532;48.29632;,
 -43.04592;-79.33532;43.04597;,
 -48.29628;-79.33532;37.05909;,
 -52.72029;-79.33532;30.43810;,
 -56.24223;-79.33532;23.29631;,
 -58.80186;-79.33532;15.75591;,
 -60.35536;-79.33532;7.94592;,
 -60.87616;-79.33532;-0.00003;,
 -60.35535;-79.33532;-7.94598;,
 -58.80184;-79.33532;-15.75596;,
 -56.24221;-79.33532;-23.29636;,
 -52.72026;-79.33532;-30.43815;,
 -48.29625;-79.33532;-37.05914;,
 -43.04587;-79.33532;-43.04602;,
 -37.05896;-79.33532;-48.29638;,
 -30.43796;-79.33532;-52.72037;,
 -23.29616;-79.33532;-56.24229;,
 -15.75576;-79.33532;-58.80190;,
 -7.94576;-79.33532;-60.35538;,
 0.00000;-79.33532;-60.87616;,
 6.52631;-86.60252;-49.57227;,
 0.00000;-86.60252;-50.00002;,
 12.94096;-86.60252;-48.29631;,
 19.13418;-86.60252;-46.19400;,
 25.00001;-86.60252;-43.30129;,
 30.43809;-86.60252;-39.66769;,
 35.35535;-86.60252;-35.35536;,
 39.66768;-86.60252;-30.43809;,
 43.30129;-86.60252;-25.00002;,
 46.19400;-86.60252;-19.13419;,
 48.29631;-86.60252;-12.94097;,
 49.57227;-86.60252;-6.52632;,
 50.00002;-86.60252;-0.00001;,
 49.57227;-86.60252;6.52630;,
 48.29632;-86.60252;12.94095;,
 46.19400;-86.60252;19.13417;,
 43.30130;-86.60252;25.00000;,
 39.66769;-86.60252;30.43808;,
 35.35537;-86.60252;35.35535;,
 30.43810;-86.60252;39.66768;,
 25.00002;-86.60252;43.30128;,
 19.13420;-86.60252;46.19399;,
 12.94097;-86.60252;48.29631;,
 6.52633;-86.60252;49.57227;,
 0.00002;-86.60252;50.00002;,
 -6.52629;-86.60252;49.57227;,
 -12.94094;-86.60252;48.29632;,
 -19.13416;-86.60252;46.19401;,
 -24.99999;-86.60252;43.30130;,
 -30.43806;-86.60252;39.66770;,
 -35.35534;-86.60252;35.35537;,
 -39.66767;-86.60252;30.43811;,
 -43.30128;-86.60252;25.00003;,
 -46.19400;-86.60252;19.13419;,
 -48.29631;-86.60252;12.94096;,
 -49.57227;-86.60252;6.52630;,
 -50.00002;-86.60252;-0.00002;,
 -49.57226;-86.60252;-6.52635;,
 -48.29630;-86.60252;-12.94100;,
 -46.19398;-86.60252;-19.13423;,
 -43.30126;-86.60252;-25.00007;,
 -39.66764;-86.60252;-30.43815;,
 -35.35529;-86.60252;-35.35542;,
 -30.43801;-86.60252;-39.66775;,
 -24.99992;-86.60252;-43.30135;,
 -19.13407;-86.60252;-46.19404;,
 -12.94083;-86.60252;-48.29635;,
 -6.52617;-86.60252;-49.57228;,
 0.00000;-86.60252;-50.00002;,
 4.99503;-92.38794;-37.94098;,
 0.00000;-92.38794;-38.26837;,
 9.90458;-92.38794;-36.96441;,
 14.64467;-92.38794;-35.35537;,
 19.13419;-92.38794;-33.14138;,
 23.29631;-92.38794;-30.36034;,
 27.05982;-92.38794;-27.05983;,
 30.36034;-92.38794;-23.29631;,
 33.14138;-92.38794;-19.13419;,
 35.35537;-92.38794;-14.64468;,
 36.96441;-92.38794;-9.90459;,
 37.94098;-92.38794;-4.99503;,
 38.26837;-92.38794;-0.00001;,
 37.94098;-92.38794;4.99502;,
 36.96441;-92.38794;9.90457;,
 35.35537;-92.38794;14.64466;,
 33.14139;-92.38794;19.13418;,
 30.36035;-92.38794;23.29630;,
 27.05983;-92.38794;27.05982;,
 23.29632;-92.38794;30.36033;,
 19.13420;-92.38794;33.14138;,
 14.64468;-92.38794;35.35536;,
 9.90460;-92.38794;36.96441;,
 4.99504;-92.38794;37.94098;,
 0.00001;-92.38794;38.26837;,
 -4.99501;-92.38794;37.94098;,
 -9.90457;-92.38794;36.96441;,
 -14.64466;-92.38794;35.35537;,
 -19.13417;-92.38794;33.14139;,
 -23.29629;-92.38794;30.36035;,
 -27.05981;-92.38794;27.05984;,
 -30.36033;-92.38794;23.29633;,
 -33.14137;-92.38794;19.13420;,
 -35.35537;-92.38794;14.64468;,
 -36.96441;-92.38794;9.90458;,
 -37.94098;-92.38794;4.99501;,
 -38.26837;-92.38794;-0.00002;,
 -37.94098;-92.38794;-4.99505;,
 -36.96440;-92.38794;-9.90462;,
 -35.35535;-92.38794;-14.64471;,
 -33.14136;-92.38794;-19.13423;,
 -30.36031;-92.38794;-23.29636;,
 -27.05978;-92.38794;-27.05987;,
 -23.29625;-92.38794;-30.36039;,
 -19.13411;-92.38794;-33.14143;,
 -14.64459;-92.38794;-35.35540;,
 -9.90449;-92.38794;-36.96444;,
 -4.99492;-92.38794;-37.94099;,
 0.00000;-92.38794;-38.26837;,
 3.37827;-96.59258;-25.66051;,
 0.00000;-96.59258;-25.88194;,
 6.69874;-96.59258;-25.00003;,
 9.90459;-96.59258;-23.91179;,
 12.94097;-96.59258;-22.41442;,
 15.75592;-96.59258;-20.53352;,
 18.30129;-96.59258;-18.30129;,
 20.53352;-96.59258;-15.75593;,
 22.41442;-96.59258;-12.94097;,
 23.91179;-96.59258;-9.90459;,
 25.00003;-96.59258;-6.69874;,
 25.66051;-96.59258;-3.37827;,
 25.88194;-96.59258;-0.00001;,
 25.66051;-96.59258;3.37826;,
 25.00003;-96.59258;6.69873;,
 23.91179;-96.59258;9.90458;,
 22.41442;-96.59258;12.94096;,
 20.53352;-96.59258;15.75592;,
 18.30130;-96.59258;18.30129;,
 15.75593;-96.59258;20.53352;,
 12.94097;-96.59258;22.41441;,
 9.90460;-96.59258;23.91179;,
 6.69875;-96.59258;25.00003;,
 3.37828;-96.59258;25.66051;,
 0.00001;-96.59258;25.88194;,
 -3.37826;-96.59258;25.66051;,
 -6.69873;-96.59258;25.00004;,
 -9.90458;-96.59258;23.91180;,
 -12.94096;-96.59258;22.41442;,
 -15.75591;-96.59258;20.53353;,
 -18.30128;-96.59258;18.30130;,
 -20.53351;-96.59258;15.75594;,
 -22.41441;-96.59258;12.94098;,
 -23.91179;-96.59258;9.90459;,
 -25.00003;-96.59258;6.69874;,
 -25.66051;-96.59258;3.37826;,
 -25.88194;-96.59258;-0.00001;,
 -25.66051;-96.59258;-3.37829;,
 -25.00003;-96.59258;-6.69876;,
 -23.91178;-96.59258;-9.90462;,
 -22.41440;-96.59258;-12.94100;,
 -20.53350;-96.59258;-15.75596;,
 -18.30126;-96.59258;-18.30133;,
 -15.75588;-96.59258;-20.53355;,
 -12.94092;-96.59258;-22.41444;,
 -9.90453;-96.59258;-23.91182;,
 -6.69867;-96.59258;-25.00005;,
 -3.37820;-96.59258;-25.66052;,
 0.00000;-96.59258;-25.88194;,
 1.70371;-99.14449;-12.94099;,
 0.00000;-99.14449;-13.05266;,
 3.37828;-99.14449;-12.60790;,
 4.99504;-99.14449;-12.05908;,
 6.52633;-99.14449;-11.30393;,
 7.94595;-99.14449;-10.35537;,
 9.22962;-99.14449;-9.22962;,
 10.35537;-99.14449;-7.94595;,
 11.30393;-99.14449;-6.52633;,
 12.05908;-99.14449;-4.99504;,
 12.60790;-99.14449;-3.37828;,
 12.94099;-99.14449;-1.70372;,
 13.05266;-99.14449;-0.00000;,
 12.94099;-99.14449;1.70371;,
 12.60790;-99.14449;3.37827;,
 12.05908;-99.14449;4.99503;,
 11.30393;-99.14449;6.52633;,
 10.35537;-99.14449;7.94595;,
 9.22962;-99.14449;9.22962;,
 7.94596;-99.14449;10.35537;,
 6.52633;-99.14449;11.30393;,
 4.99504;-99.14449;12.05908;,
 3.37828;-99.14449;12.60790;,
 1.70372;-99.14449;12.94099;,
 0.00001;-99.14449;13.05266;,
 -1.70371;-99.14449;12.94099;,
 -3.37827;-99.14449;12.60790;,
 -4.99503;-99.14449;12.05908;,
 -6.52632;-99.14449;11.30393;,
 -7.94595;-99.14449;10.35537;,
 -9.22962;-99.14449;9.22963;,
 -10.35536;-99.14449;7.94596;,
 -11.30393;-99.14449;6.52633;,
 -12.05908;-99.14449;4.99504;,
 -12.60790;-99.14449;3.37827;,
 -12.94099;-99.14449;1.70371;,
 -13.05266;-99.14449;-0.00001;,
 -12.94099;-99.14449;-1.70372;,
 -12.60789;-99.14449;-3.37829;,
 -12.05908;-99.14449;-4.99505;,
 -11.30392;-99.14449;-6.52634;,
 -10.35536;-99.14449;-7.94597;,
 -9.22960;-99.14449;-9.22964;,
 -7.94593;-99.14449;-10.35538;,
 -6.52630;-99.14449;-11.30395;,
 -4.99501;-99.14449;-12.05909;,
 -3.37824;-99.14449;-12.60791;,
 -1.70368;-99.14449;-12.94099;,
 0.00000;-99.14449;-13.05266;,
 0.00000;-100.00000;-0.00000;,
 0.00000;-100.00000;-0.00000;;
 
 1152;
 3;2,1,0;,
 3;1,3,0;,
 3;3,4,0;,
 3;4,5,0;,
 3;5,6,0;,
 3;6,7,0;,
 3;7,8,0;,
 3;8,9,0;,
 3;9,10,0;,
 3;10,11,0;,
 3;11,12,0;,
 3;12,13,0;,
 3;13,14,0;,
 3;14,15,0;,
 3;15,16,0;,
 3;16,17,0;,
 3;17,18,0;,
 3;18,19,0;,
 3;19,20,0;,
 3;20,21,0;,
 3;21,22,0;,
 3;22,23,0;,
 3;23,24,0;,
 3;24,25,0;,
 3;25,26,0;,
 3;26,27,0;,
 3;27,28,0;,
 3;28,29,0;,
 3;29,30,0;,
 3;30,31,0;,
 3;31,32,0;,
 3;32,33,0;,
 3;33,34,0;,
 3;34,35,0;,
 3;35,36,0;,
 3;36,37,0;,
 3;37,38,0;,
 3;38,39,0;,
 3;39,40,0;,
 3;40,41,0;,
 3;41,42,0;,
 3;42,43,0;,
 3;43,44,0;,
 3;44,45,0;,
 3;45,46,0;,
 3;46,47,0;,
 3;47,48,0;,
 3;48,2,0;,
 4;52,51,50,49;,
 4;51,54,53,50;,
 4;54,56,55,53;,
 4;56,58,57,55;,
 4;58,60,59,57;,
 4;60,62,61,59;,
 4;62,64,63,61;,
 4;64,66,65,63;,
 4;66,68,67,65;,
 4;68,70,69,67;,
 4;70,72,71,69;,
 4;72,74,73,71;,
 4;74,75,14,73;,
 4;75,76,15,14;,
 4;76,77,16,15;,
 4;77,78,17,16;,
 4;78,79,18,17;,
 4;79,80,19,18;,
 4;80,81,20,19;,
 4;81,82,21,20;,
 4;82,83,22,21;,
 4;83,84,23,22;,
 4;84,85,24,23;,
 4;85,86,25,24;,
 4;86,87,26,25;,
 4;87,88,27,26;,
 4;88,89,28,27;,
 4;89,90,29,28;,
 4;90,91,30,29;,
 4;91,92,31,30;,
 4;92,93,32,31;,
 4;93,94,33,32;,
 4;94,95,34,33;,
 4;95,96,35,34;,
 4;96,97,36,35;,
 4;97,98,37,36;,
 4;98,99,38,37;,
 4;99,100,39,38;,
 4;100,101,40,39;,
 4;101,102,41,40;,
 4;102,103,42,41;,
 4;103,104,43,42;,
 4;104,105,44,43;,
 4;105,106,45,44;,
 4;106,107,46,45;,
 4;107,108,47,46;,
 4;108,109,48,47;,
 4;109,110,2,48;,
 4;112,111,51,52;,
 4;111,113,54,51;,
 4;113,114,56,54;,
 4;114,115,58,56;,
 4;115,116,60,58;,
 4;116,117,62,60;,
 4;117,118,64,62;,
 4;118,119,66,64;,
 4;119,120,68,66;,
 4;120,121,70,68;,
 4;121,122,72,70;,
 4;122,123,74,72;,
 4;123,124,75,74;,
 4;124,125,76,75;,
 4;125,126,77,76;,
 4;126,127,78,77;,
 4;127,128,79,78;,
 4;128,129,80,79;,
 4;129,130,81,80;,
 4;130,131,82,81;,
 4;131,132,83,82;,
 4;132,133,84,83;,
 4;133,134,85,84;,
 4;134,135,86,85;,
 4;135,136,87,86;,
 4;136,137,88,87;,
 4;137,138,89,88;,
 4;138,139,90,89;,
 4;139,140,91,90;,
 4;140,141,92,91;,
 4;141,142,93,92;,
 4;142,143,94,93;,
 4;143,144,95,94;,
 4;144,145,96,95;,
 4;145,146,97,96;,
 4;146,147,98,97;,
 4;147,148,99,98;,
 4;148,149,100,99;,
 4;149,150,101,100;,
 4;150,151,102,101;,
 4;151,152,103,102;,
 4;152,153,104,103;,
 4;153,154,105,104;,
 4;154,155,106,105;,
 4;155,156,107,106;,
 4;156,157,108,107;,
 4;157,158,109,108;,
 4;158,159,110,109;,
 4;161,160,111,112;,
 4;160,162,113,111;,
 4;162,163,114,113;,
 4;163,164,115,114;,
 4;164,165,116,115;,
 4;165,166,117,116;,
 4;166,167,118,117;,
 4;167,168,119,118;,
 4;168,169,120,119;,
 4;169,170,121,120;,
 4;170,171,122,121;,
 4;171,172,123,122;,
 4;172,173,124,123;,
 4;173,174,125,124;,
 4;174,175,126,125;,
 4;175,176,127,126;,
 4;176,177,128,127;,
 4;177,178,129,128;,
 4;178,179,130,129;,
 4;179,180,131,130;,
 4;180,181,132,131;,
 4;181,182,133,132;,
 4;182,183,134,133;,
 4;183,184,135,134;,
 4;184,185,136,135;,
 4;185,186,137,136;,
 4;186,187,138,137;,
 4;187,188,139,138;,
 4;188,189,140,139;,
 4;189,190,141,140;,
 4;190,191,142,141;,
 4;191,192,143,142;,
 4;192,193,144,143;,
 4;193,194,145,144;,
 4;194,195,146,145;,
 4;195,196,147,146;,
 4;196,197,148,147;,
 4;197,198,149,148;,
 4;198,199,150,149;,
 4;199,200,151,150;,
 4;200,201,152,151;,
 4;201,202,153,152;,
 4;202,203,154,153;,
 4;203,204,155,154;,
 4;204,205,156,155;,
 4;205,206,157,156;,
 4;206,207,158,157;,
 4;207,208,159,158;,
 4;210,209,160,161;,
 4;209,211,162,160;,
 4;211,212,163,162;,
 4;212,213,164,163;,
 4;213,214,165,164;,
 4;214,215,166,165;,
 4;215,216,167,166;,
 4;216,217,168,167;,
 4;217,218,169,168;,
 4;218,219,170,169;,
 4;219,220,171,170;,
 4;220,221,172,171;,
 4;221,222,173,172;,
 4;222,223,174,173;,
 4;223,224,175,174;,
 4;224,225,176,175;,
 4;225,226,177,176;,
 4;226,227,178,177;,
 4;227,228,179,178;,
 4;228,229,180,179;,
 4;229,230,181,180;,
 4;230,231,182,181;,
 4;231,232,183,182;,
 4;232,233,184,183;,
 4;233,234,185,184;,
 4;234,235,186,185;,
 4;235,236,187,186;,
 4;236,237,188,187;,
 4;237,238,189,188;,
 4;238,239,190,189;,
 4;239,240,191,190;,
 4;240,241,192,191;,
 4;241,242,193,192;,
 4;242,243,194,193;,
 4;243,244,195,194;,
 4;244,245,196,195;,
 4;245,246,197,196;,
 4;246,247,198,197;,
 4;247,248,199,198;,
 4;248,249,200,199;,
 4;249,250,201,200;,
 4;250,251,202,201;,
 4;251,252,203,202;,
 4;252,253,204,203;,
 4;253,254,205,204;,
 4;254,255,206,205;,
 4;255,256,207,206;,
 4;256,257,208,207;,
 4;259,258,209,210;,
 4;258,260,211,209;,
 4;260,261,212,211;,
 4;261,262,213,212;,
 4;262,263,214,213;,
 4;263,264,215,214;,
 4;264,265,216,215;,
 4;265,266,217,216;,
 4;266,267,218,217;,
 4;267,268,219,218;,
 4;268,269,220,219;,
 4;269,270,221,220;,
 4;270,271,222,221;,
 4;271,272,223,222;,
 4;272,273,224,223;,
 4;273,274,225,224;,
 4;274,275,226,225;,
 4;275,276,227,226;,
 4;276,277,228,227;,
 4;277,278,229,228;,
 4;278,279,230,229;,
 4;279,280,231,230;,
 4;280,281,232,231;,
 4;281,282,233,232;,
 4;282,283,234,233;,
 4;283,284,235,234;,
 4;284,285,236,235;,
 4;285,286,237,236;,
 4;286,287,238,237;,
 4;287,288,239,238;,
 4;288,289,240,239;,
 4;289,290,241,240;,
 4;290,291,242,241;,
 4;291,292,243,242;,
 4;292,293,244,243;,
 4;293,294,245,244;,
 4;294,295,246,245;,
 4;295,296,247,246;,
 4;296,297,248,247;,
 4;297,298,249,248;,
 4;298,299,250,249;,
 4;299,300,251,250;,
 4;300,301,252,251;,
 4;301,302,253,252;,
 4;302,303,254,253;,
 4;303,304,255,254;,
 4;304,305,256,255;,
 4;305,306,257,256;,
 4;308,307,258,259;,
 4;307,309,260,258;,
 4;309,310,261,260;,
 4;310,311,262,261;,
 4;311,312,263,262;,
 4;312,313,264,263;,
 4;313,314,265,264;,
 4;314,315,266,265;,
 4;315,316,267,266;,
 4;316,317,268,267;,
 4;317,318,269,268;,
 4;318,319,270,269;,
 4;319,320,271,270;,
 4;320,321,272,271;,
 4;321,322,273,272;,
 4;322,323,274,273;,
 4;323,324,275,274;,
 4;324,325,276,275;,
 4;325,326,277,276;,
 4;326,327,278,277;,
 4;327,328,279,278;,
 4;328,329,280,279;,
 4;329,330,281,280;,
 4;330,331,282,281;,
 4;331,332,283,282;,
 4;332,333,284,283;,
 4;333,334,285,284;,
 4;334,335,286,285;,
 4;335,336,287,286;,
 4;336,337,288,287;,
 4;337,338,289,288;,
 4;338,339,290,289;,
 4;339,340,291,290;,
 4;340,341,292,291;,
 4;341,342,293,292;,
 4;342,343,294,293;,
 4;343,344,295,294;,
 4;344,345,296,295;,
 4;345,346,297,296;,
 4;346,347,298,297;,
 4;347,348,299,298;,
 4;348,349,300,299;,
 4;349,350,301,300;,
 4;350,351,302,301;,
 4;351,352,303,302;,
 4;352,353,304,303;,
 4;353,354,305,304;,
 4;354,355,306,305;,
 4;357,356,307,308;,
 4;356,358,309,307;,
 4;358,359,310,309;,
 4;359,360,311,310;,
 4;360,361,312,311;,
 4;361,362,313,312;,
 4;362,363,314,313;,
 4;363,364,315,314;,
 4;364,365,316,315;,
 4;365,366,317,316;,
 4;366,367,318,317;,
 4;367,368,319,318;,
 4;368,369,320,319;,
 4;369,370,321,320;,
 4;370,371,322,321;,
 4;371,372,323,322;,
 4;372,373,324,323;,
 4;373,374,325,324;,
 4;374,375,326,325;,
 4;375,376,327,326;,
 4;376,377,328,327;,
 4;377,378,329,328;,
 4;378,379,330,329;,
 4;379,380,331,330;,
 4;380,381,332,331;,
 4;381,382,333,332;,
 4;382,383,334,333;,
 4;383,384,335,334;,
 4;384,385,336,335;,
 4;385,386,337,336;,
 4;386,387,338,337;,
 4;387,388,339,338;,
 4;388,389,340,339;,
 4;389,390,341,340;,
 4;390,391,342,341;,
 4;391,392,343,342;,
 4;392,393,344,343;,
 4;393,394,345,344;,
 4;394,395,346,345;,
 4;395,396,347,346;,
 4;396,397,348,347;,
 4;397,398,349,348;,
 4;398,399,350,349;,
 4;399,400,351,350;,
 4;400,401,352,351;,
 4;401,402,353,352;,
 4;402,403,354,353;,
 4;403,404,355,354;,
 4;406,405,356,357;,
 4;405,407,358,356;,
 4;407,408,359,358;,
 4;408,409,360,359;,
 4;409,410,361,360;,
 4;410,411,362,361;,
 4;411,412,363,362;,
 4;412,413,364,363;,
 4;413,414,365,364;,
 4;414,415,366,365;,
 4;415,416,367,366;,
 4;416,417,368,367;,
 4;417,418,369,368;,
 4;418,419,370,369;,
 4;419,420,371,370;,
 4;420,421,372,371;,
 4;421,422,373,372;,
 4;422,423,374,373;,
 4;423,424,375,374;,
 4;424,425,376,375;,
 4;425,426,377,376;,
 4;426,427,378,377;,
 4;427,428,379,378;,
 4;428,429,380,379;,
 4;429,430,381,380;,
 4;430,431,382,381;,
 4;431,432,383,382;,
 4;432,433,384,383;,
 4;433,434,385,384;,
 4;434,435,386,385;,
 4;435,436,387,386;,
 4;436,437,388,387;,
 4;437,438,389,388;,
 4;438,439,390,389;,
 4;439,440,391,390;,
 4;440,441,392,391;,
 4;441,442,393,392;,
 4;442,443,394,393;,
 4;443,444,395,394;,
 4;444,445,396,395;,
 4;445,446,397,396;,
 4;446,447,398,397;,
 4;447,448,399,398;,
 4;448,449,400,399;,
 4;449,450,401,400;,
 4;450,451,402,401;,
 4;451,452,403,402;,
 4;452,453,404,403;,
 4;455,454,405,406;,
 4;454,456,407,405;,
 4;456,457,408,407;,
 4;457,458,409,408;,
 4;458,459,410,409;,
 4;459,460,411,410;,
 4;460,461,412,411;,
 4;461,462,413,412;,
 4;462,463,414,413;,
 4;463,464,415,414;,
 4;464,465,416,415;,
 4;465,466,417,416;,
 4;466,467,418,417;,
 4;467,468,419,418;,
 4;468,469,420,419;,
 4;469,470,421,420;,
 4;470,471,422,421;,
 4;471,472,423,422;,
 4;472,473,424,423;,
 4;473,474,425,424;,
 4;474,475,426,425;,
 4;475,476,427,426;,
 4;476,477,428,427;,
 4;477,478,429,428;,
 4;478,479,430,429;,
 4;479,480,431,430;,
 4;480,481,432,431;,
 4;481,482,433,432;,
 4;482,483,434,433;,
 4;483,484,435,434;,
 4;484,485,436,435;,
 4;485,486,437,436;,
 4;486,487,438,437;,
 4;487,488,439,438;,
 4;488,489,440,439;,
 4;489,490,441,440;,
 4;490,491,442,441;,
 4;491,492,443,442;,
 4;492,493,444,443;,
 4;493,494,445,444;,
 4;494,495,446,445;,
 4;495,496,447,446;,
 4;496,497,448,447;,
 4;497,498,449,448;,
 4;498,499,450,449;,
 4;499,500,451,450;,
 4;500,501,452,451;,
 4;501,502,453,452;,
 4;504,503,454,455;,
 4;503,505,456,454;,
 4;505,506,457,456;,
 4;506,507,458,457;,
 4;507,508,459,458;,
 4;508,509,460,459;,
 4;509,510,461,460;,
 4;510,511,462,461;,
 4;511,512,463,462;,
 4;512,513,464,463;,
 4;513,514,465,464;,
 4;514,515,466,465;,
 4;515,516,467,466;,
 4;516,517,468,467;,
 4;517,518,469,468;,
 4;518,519,470,469;,
 4;519,520,471,470;,
 4;520,521,472,471;,
 4;521,522,473,472;,
 4;522,523,474,473;,
 4;523,524,475,474;,
 4;524,525,476,475;,
 4;525,526,477,476;,
 4;526,527,478,477;,
 4;527,528,479,478;,
 4;528,529,480,479;,
 4;529,530,481,480;,
 4;530,531,482,481;,
 4;531,532,483,482;,
 4;532,533,484,483;,
 4;533,534,485,484;,
 4;534,535,486,485;,
 4;535,536,487,486;,
 4;536,537,488,487;,
 4;537,538,489,488;,
 4;538,539,490,489;,
 4;539,540,491,490;,
 4;540,541,492,491;,
 4;541,542,493,492;,
 4;542,543,494,493;,
 4;543,544,495,494;,
 4;544,545,496,495;,
 4;545,546,497,496;,
 4;546,547,498,497;,
 4;547,548,499,498;,
 4;548,549,500,499;,
 4;549,550,501,500;,
 4;550,551,502,501;,
 4;553,552,503,504;,
 4;552,554,505,503;,
 4;554,555,506,505;,
 4;555,556,507,506;,
 4;556,557,508,507;,
 4;557,558,509,508;,
 4;558,559,510,509;,
 4;559,560,511,510;,
 4;560,561,512,511;,
 4;561,562,513,512;,
 4;562,563,514,513;,
 4;563,564,515,514;,
 4;564,565,516,515;,
 4;565,566,517,516;,
 4;566,567,518,517;,
 4;567,568,519,518;,
 4;568,569,520,519;,
 4;569,570,521,520;,
 4;570,571,522,521;,
 4;571,572,523,522;,
 4;572,573,524,523;,
 4;573,574,525,524;,
 4;574,575,526,525;,
 4;575,576,527,526;,
 4;576,577,528,527;,
 4;577,578,529,528;,
 4;578,579,530,529;,
 4;579,580,531,530;,
 4;580,581,532,531;,
 4;581,582,533,532;,
 4;582,583,534,533;,
 4;583,584,535,534;,
 4;584,585,536,535;,
 4;585,586,537,536;,
 4;586,587,538,537;,
 4;587,588,539,538;,
 4;588,589,540,539;,
 4;589,590,541,540;,
 4;590,591,542,541;,
 4;591,592,543,542;,
 4;592,593,544,543;,
 4;593,594,545,544;,
 4;594,595,546,545;,
 4;595,596,547,546;,
 4;596,597,548,547;,
 4;597,598,549,548;,
 4;598,599,550,549;,
 4;599,600,551,550;,
 4;602,601,552,553;,
 4;601,603,554,552;,
 4;603,604,555,554;,
 4;604,605,556,555;,
 4;605,606,557,556;,
 4;606,607,558,557;,
 4;607,608,559,558;,
 4;608,609,560,559;,
 4;609,610,561,560;,
 4;610,611,562,561;,
 4;611,612,563,562;,
 4;612,613,564,563;,
 4;613,614,565,564;,
 4;614,615,566,565;,
 4;615,616,567,566;,
 4;616,617,568,567;,
 4;617,618,569,568;,
 4;618,619,570,569;,
 4;619,620,571,570;,
 4;620,621,572,571;,
 4;621,622,573,572;,
 4;622,623,574,573;,
 4;623,624,575,574;,
 4;624,625,576,575;,
 4;625,626,577,576;,
 4;626,627,578,577;,
 4;627,628,579,578;,
 4;628,629,580,579;,
 4;629,630,581,580;,
 4;630,631,582,581;,
 4;631,632,583,582;,
 4;632,633,584,583;,
 4;633,634,585,584;,
 4;634,635,586,585;,
 4;635,636,587,586;,
 4;636,637,588,587;,
 4;637,638,589,588;,
 4;638,639,590,589;,
 4;639,640,591,590;,
 4;640,641,592,591;,
 4;641,642,593,592;,
 4;642,643,594,593;,
 4;643,644,595,594;,
 4;644,645,596,595;,
 4;645,646,597,596;,
 4;646,647,598,597;,
 4;647,648,599,598;,
 4;648,649,600,599;,
 4;651,650,601,602;,
 4;650,652,603,601;,
 4;652,653,604,603;,
 4;653,654,605,604;,
 4;654,655,606,605;,
 4;655,656,607,606;,
 4;656,657,608,607;,
 4;657,658,609,608;,
 4;658,659,610,609;,
 4;659,660,611,610;,
 4;660,661,612,611;,
 4;661,662,613,612;,
 4;662,663,614,613;,
 4;663,664,615,614;,
 4;664,665,616,615;,
 4;665,666,617,616;,
 4;666,667,618,617;,
 4;667,668,619,618;,
 4;668,669,620,619;,
 4;669,670,621,620;,
 4;670,671,622,621;,
 4;671,672,623,622;,
 4;672,673,624,623;,
 4;673,674,625,624;,
 4;674,675,626,625;,
 4;675,676,627,626;,
 4;676,677,628,627;,
 4;677,678,629,628;,
 4;678,679,630,629;,
 4;679,680,631,630;,
 4;680,681,632,631;,
 4;681,682,633,632;,
 4;682,683,634,633;,
 4;683,684,635,634;,
 4;684,685,636,635;,
 4;685,686,637,636;,
 4;686,687,638,637;,
 4;687,688,639,638;,
 4;688,689,640,639;,
 4;689,690,641,640;,
 4;690,691,642,641;,
 4;691,692,643,642;,
 4;692,693,644,643;,
 4;693,694,645,644;,
 4;694,695,646,645;,
 4;695,696,647,646;,
 4;696,697,648,647;,
 4;697,698,649,648;,
 4;700,699,650,651;,
 4;699,701,652,650;,
 4;701,702,653,652;,
 4;702,703,654,653;,
 4;703,704,655,654;,
 4;704,705,656,655;,
 4;705,706,657,656;,
 4;706,707,658,657;,
 4;707,708,659,658;,
 4;708,709,660,659;,
 4;709,710,661,660;,
 4;710,711,662,661;,
 4;711,712,663,662;,
 4;712,713,664,663;,
 4;713,714,665,664;,
 4;714,715,666,665;,
 4;715,716,667,666;,
 4;716,717,668,667;,
 4;717,718,669,668;,
 4;718,719,670,669;,
 4;719,720,671,670;,
 4;720,721,672,671;,
 4;721,722,673,672;,
 4;722,723,674,673;,
 4;723,724,675,674;,
 4;724,725,676,675;,
 4;725,726,677,676;,
 4;726,727,678,677;,
 4;727,728,679,678;,
 4;728,729,680,679;,
 4;729,730,681,680;,
 4;730,731,682,681;,
 4;731,732,683,682;,
 4;732,733,684,683;,
 4;733,734,685,684;,
 4;734,735,686,685;,
 4;735,736,687,686;,
 4;736,737,688,687;,
 4;737,738,689,688;,
 4;738,739,690,689;,
 4;739,740,691,690;,
 4;740,741,692,691;,
 4;741,742,693,692;,
 4;742,743,694,693;,
 4;743,744,695,694;,
 4;744,745,696,695;,
 4;745,746,697,696;,
 4;746,747,698,697;,
 4;749,748,699,700;,
 4;748,750,701,699;,
 4;750,751,702,701;,
 4;751,752,703,702;,
 4;752,753,704,703;,
 4;753,754,705,704;,
 4;754,755,706,705;,
 4;755,756,707,706;,
 4;756,757,708,707;,
 4;757,758,709,708;,
 4;758,759,710,709;,
 4;759,760,711,710;,
 4;760,761,712,711;,
 4;761,762,713,712;,
 4;762,763,714,713;,
 4;763,764,715,714;,
 4;764,765,716,715;,
 4;765,766,717,716;,
 4;766,767,718,717;,
 4;767,768,719,718;,
 4;768,769,720,719;,
 4;769,770,721,720;,
 4;770,771,722,721;,
 4;771,772,723,722;,
 4;772,773,724,723;,
 4;773,774,725,724;,
 4;774,775,726,725;,
 4;775,776,727,726;,
 4;776,777,728,727;,
 4;777,778,729,728;,
 4;778,779,730,729;,
 4;779,780,731,730;,
 4;780,781,732,731;,
 4;781,782,733,732;,
 4;782,783,734,733;,
 4;783,784,735,734;,
 4;784,785,736,735;,
 4;785,786,737,736;,
 4;786,787,738,737;,
 4;787,788,739,738;,
 4;788,789,740,739;,
 4;789,790,741,740;,
 4;790,791,742,741;,
 4;791,792,743,742;,
 4;792,793,744,743;,
 4;793,794,745,744;,
 4;794,795,746,745;,
 4;795,796,747,746;,
 4;798,797,748,749;,
 4;797,799,750,748;,
 4;799,800,751,750;,
 4;800,801,752,751;,
 4;801,802,753,752;,
 4;802,803,754,753;,
 4;803,804,755,754;,
 4;804,805,756,755;,
 4;805,806,757,756;,
 4;806,807,758,757;,
 4;807,808,759,758;,
 4;808,809,760,759;,
 4;809,810,761,760;,
 4;810,811,762,761;,
 4;811,812,763,762;,
 4;812,813,764,763;,
 4;813,814,765,764;,
 4;814,815,766,765;,
 4;815,816,767,766;,
 4;816,817,768,767;,
 4;817,818,769,768;,
 4;818,819,770,769;,
 4;819,820,771,770;,
 4;820,821,772,771;,
 4;821,822,773,772;,
 4;822,823,774,773;,
 4;823,824,775,774;,
 4;824,825,776,775;,
 4;825,826,777,776;,
 4;826,827,778,777;,
 4;827,828,779,778;,
 4;828,829,780,779;,
 4;829,830,781,780;,
 4;830,831,782,781;,
 4;831,832,783,782;,
 4;832,833,784,783;,
 4;833,834,785,784;,
 4;834,835,786,785;,
 4;835,836,787,786;,
 4;836,837,788,787;,
 4;837,838,789,788;,
 4;838,839,790,789;,
 4;839,840,791,790;,
 4;840,841,792,791;,
 4;841,842,793,792;,
 4;842,843,794,793;,
 4;843,844,795,794;,
 4;844,845,796,795;,
 4;847,846,797,798;,
 4;846,848,799,797;,
 4;848,849,800,799;,
 4;849,850,801,800;,
 4;850,851,802,801;,
 4;851,852,803,802;,
 4;852,853,804,803;,
 4;853,854,805,804;,
 4;854,855,806,805;,
 4;855,856,807,806;,
 4;856,857,808,807;,
 4;857,858,809,808;,
 4;858,859,810,809;,
 4;859,860,811,810;,
 4;860,861,812,811;,
 4;861,862,813,812;,
 4;862,863,814,813;,
 4;863,864,815,814;,
 4;864,865,816,815;,
 4;865,866,817,816;,
 4;866,867,818,817;,
 4;867,868,819,818;,
 4;868,869,820,819;,
 4;869,870,821,820;,
 4;870,871,822,821;,
 4;871,872,823,822;,
 4;872,873,824,823;,
 4;873,874,825,824;,
 4;874,875,826,825;,
 4;875,876,827,826;,
 4;876,877,828,827;,
 4;877,878,829,828;,
 4;878,879,830,829;,
 4;879,880,831,830;,
 4;880,881,832,831;,
 4;881,882,833,832;,
 4;882,883,834,833;,
 4;883,884,835,834;,
 4;884,885,836,835;,
 4;885,886,837,836;,
 4;886,887,838,837;,
 4;887,888,839,838;,
 4;888,889,840,839;,
 4;889,890,841,840;,
 4;890,891,842,841;,
 4;891,892,843,842;,
 4;892,893,844,843;,
 4;893,894,845,844;,
 4;896,895,846,847;,
 4;895,897,848,846;,
 4;897,898,849,848;,
 4;898,899,850,849;,
 4;899,900,851,850;,
 4;900,901,852,851;,
 4;901,902,853,852;,
 4;902,903,854,853;,
 4;903,904,855,854;,
 4;904,905,856,855;,
 4;905,906,857,856;,
 4;906,907,858,857;,
 4;907,908,859,858;,
 4;908,909,860,859;,
 4;909,910,861,860;,
 4;910,911,862,861;,
 4;911,912,863,862;,
 4;912,913,864,863;,
 4;913,914,865,864;,
 4;914,915,866,865;,
 4;915,916,867,866;,
 4;916,917,868,867;,
 4;917,918,869,868;,
 4;918,919,870,869;,
 4;919,920,871,870;,
 4;920,921,872,871;,
 4;921,922,873,872;,
 4;922,923,874,873;,
 4;923,924,875,874;,
 4;924,925,876,875;,
 4;925,926,877,876;,
 4;926,927,878,877;,
 4;927,928,879,878;,
 4;928,929,880,879;,
 4;929,930,881,880;,
 4;930,931,882,881;,
 4;931,932,883,882;,
 4;932,933,884,883;,
 4;933,934,885,884;,
 4;934,935,886,885;,
 4;935,936,887,886;,
 4;936,937,888,887;,
 4;937,938,889,888;,
 4;938,939,890,889;,
 4;939,940,891,890;,
 4;940,941,892,891;,
 4;941,942,893,892;,
 4;942,943,894,893;,
 4;945,944,895,896;,
 4;944,946,897,895;,
 4;946,947,898,897;,
 4;947,948,899,898;,
 4;948,949,900,899;,
 4;949,950,901,900;,
 4;950,951,902,901;,
 4;951,952,903,902;,
 4;952,953,904,903;,
 4;953,954,905,904;,
 4;954,955,906,905;,
 4;955,956,907,906;,
 4;956,957,908,907;,
 4;957,958,909,908;,
 4;958,959,910,909;,
 4;959,960,911,910;,
 4;960,961,912,911;,
 4;961,962,913,912;,
 4;962,963,914,913;,
 4;963,964,915,914;,
 4;964,965,916,915;,
 4;965,966,917,916;,
 4;966,967,918,917;,
 4;967,968,919,918;,
 4;968,969,920,919;,
 4;969,970,921,920;,
 4;970,971,922,921;,
 4;971,972,923,922;,
 4;972,973,924,923;,
 4;973,974,925,924;,
 4;974,975,926,925;,
 4;975,976,927,926;,
 4;976,977,928,927;,
 4;977,978,929,928;,
 4;978,979,930,929;,
 4;979,980,931,930;,
 4;980,981,932,931;,
 4;981,982,933,932;,
 4;982,983,934,933;,
 4;983,984,935,934;,
 4;984,985,936,935;,
 4;985,986,937,936;,
 4;986,987,938,937;,
 4;987,988,939,938;,
 4;988,989,940,939;,
 4;989,990,941,940;,
 4;990,991,942,941;,
 4;991,992,943,942;,
 4;994,993,944,945;,
 4;993,995,946,944;,
 4;995,996,947,946;,
 4;996,997,948,947;,
 4;997,998,949,948;,
 4;998,999,950,949;,
 4;999,1000,951,950;,
 4;1000,1001,952,951;,
 4;1001,1002,953,952;,
 4;1002,1003,954,953;,
 4;1003,1004,955,954;,
 4;1004,1005,956,955;,
 4;1005,1006,957,956;,
 4;1006,1007,958,957;,
 4;1007,1008,959,958;,
 4;1008,1009,960,959;,
 4;1009,1010,961,960;,
 4;1010,1011,962,961;,
 4;1011,1012,963,962;,
 4;1012,1013,964,963;,
 4;1013,1014,965,964;,
 4;1014,1015,966,965;,
 4;1015,1016,967,966;,
 4;1016,1017,968,967;,
 4;1017,1018,969,968;,
 4;1018,1019,970,969;,
 4;1019,1020,971,970;,
 4;1020,1021,972,971;,
 4;1021,1022,973,972;,
 4;1022,1023,974,973;,
 4;1023,1024,975,974;,
 4;1024,1025,976,975;,
 4;1025,1026,977,976;,
 4;1026,1027,978,977;,
 4;1027,1028,979,978;,
 4;1028,1029,980,979;,
 4;1029,1030,981,980;,
 4;1030,1031,982,981;,
 4;1031,1032,983,982;,
 4;1032,1033,984,983;,
 4;1033,1034,985,984;,
 4;1034,1035,986,985;,
 4;1035,1036,987,986;,
 4;1036,1037,988,987;,
 4;1037,1038,989,988;,
 4;1038,1039,990,989;,
 4;1039,1040,991,990;,
 4;1040,1041,992,991;,
 4;1043,1042,993,994;,
 4;1042,1044,995,993;,
 4;1044,1045,996,995;,
 4;1045,1046,997,996;,
 4;1046,1047,998,997;,
 4;1047,1048,999,998;,
 4;1048,1049,1000,999;,
 4;1049,1050,1001,1000;,
 4;1050,1051,1002,1001;,
 4;1051,1052,1003,1002;,
 4;1052,1053,1004,1003;,
 4;1053,1054,1005,1004;,
 4;1054,1055,1006,1005;,
 4;1055,1056,1007,1006;,
 4;1056,1057,1008,1007;,
 4;1057,1058,1009,1008;,
 4;1058,1059,1010,1009;,
 4;1059,1060,1011,1010;,
 4;1060,1061,1012,1011;,
 4;1061,1062,1013,1012;,
 4;1062,1063,1014,1013;,
 4;1063,1064,1015,1014;,
 4;1064,1065,1016,1015;,
 4;1065,1066,1017,1016;,
 4;1066,1067,1018,1017;,
 4;1067,1068,1019,1018;,
 4;1068,1069,1020,1019;,
 4;1069,1070,1021,1020;,
 4;1070,1071,1022,1021;,
 4;1071,1072,1023,1022;,
 4;1072,1073,1024,1023;,
 4;1073,1074,1025,1024;,
 4;1074,1075,1026,1025;,
 4;1075,1076,1027,1026;,
 4;1076,1077,1028,1027;,
 4;1077,1078,1029,1028;,
 4;1078,1079,1030,1029;,
 4;1079,1080,1031,1030;,
 4;1080,1081,1032,1031;,
 4;1081,1082,1033,1032;,
 4;1082,1083,1034,1033;,
 4;1083,1084,1035,1034;,
 4;1084,1085,1036,1035;,
 4;1085,1086,1037,1036;,
 4;1086,1087,1038,1037;,
 4;1087,1088,1039,1038;,
 4;1088,1089,1040,1039;,
 4;1089,1090,1041,1040;,
 4;1092,1091,1042,1043;,
 4;1091,1093,1044,1042;,
 4;1093,1094,1045,1044;,
 4;1094,1095,1046,1045;,
 4;1095,1096,1047,1046;,
 4;1096,1097,1048,1047;,
 4;1097,1098,1049,1048;,
 4;1098,1099,1050,1049;,
 4;1099,1100,1051,1050;,
 4;1100,1101,1052,1051;,
 4;1101,1102,1053,1052;,
 4;1102,1103,1054,1053;,
 4;1103,1104,1055,1054;,
 4;1104,1105,1056,1055;,
 4;1105,1106,1057,1056;,
 4;1106,1107,1058,1057;,
 4;1107,1108,1059,1058;,
 4;1108,1109,1060,1059;,
 4;1109,1110,1061,1060;,
 4;1110,1111,1062,1061;,
 4;1111,1112,1063,1062;,
 4;1112,1113,1064,1063;,
 4;1113,1114,1065,1064;,
 4;1114,1115,1066,1065;,
 4;1115,1116,1067,1066;,
 4;1116,1117,1068,1067;,
 4;1117,1118,1069,1068;,
 4;1118,1119,1070,1069;,
 4;1119,1120,1071,1070;,
 4;1120,1121,1072,1071;,
 4;1121,1122,1073,1072;,
 4;1122,1123,1074,1073;,
 4;1123,1124,1075,1074;,
 4;1124,1125,1076,1075;,
 4;1125,1126,1077,1076;,
 4;1126,1127,1078,1077;,
 4;1127,1128,1079,1078;,
 4;1128,1129,1080,1079;,
 4;1129,1130,1081,1080;,
 4;1130,1131,1082,1081;,
 4;1131,1132,1083,1082;,
 4;1132,1133,1084,1083;,
 4;1133,1134,1085,1084;,
 4;1134,1135,1086,1085;,
 4;1135,1136,1087,1086;,
 4;1136,1137,1088,1087;,
 4;1137,1138,1089,1088;,
 4;1138,1139,1090,1089;,
 3;1140,1091,1092;,
 3;1140,1093,1091;,
 3;1140,1094,1093;,
 3;1140,1095,1094;,
 3;1140,1096,1095;,
 3;1140,1097,1096;,
 3;1140,1098,1097;,
 3;1140,1099,1098;,
 3;1140,1100,1099;,
 3;1140,1101,1100;,
 3;1140,1102,1101;,
 3;1140,1103,1102;,
 3;1140,1104,1103;,
 3;1141,1105,1104;,
 3;1141,1106,1105;,
 3;1141,1107,1106;,
 3;1141,1108,1107;,
 3;1141,1109,1108;,
 3;1141,1110,1109;,
 3;1141,1111,1110;,
 3;1141,1112,1111;,
 3;1141,1113,1112;,
 3;1141,1114,1113;,
 3;1141,1115,1114;,
 3;1141,1116,1115;,
 3;1141,1117,1116;,
 3;1141,1118,1117;,
 3;1141,1119,1118;,
 3;1141,1120,1119;,
 3;1141,1121,1120;,
 3;1141,1122,1121;,
 3;1141,1123,1122;,
 3;1141,1124,1123;,
 3;1141,1125,1124;,
 3;1141,1126,1125;,
 3;1141,1127,1126;,
 3;1141,1128,1127;,
 3;1141,1129,1128;,
 3;1141,1130,1129;,
 3;1141,1131,1130;,
 3;1141,1132,1131;,
 3;1141,1133,1132;,
 3;1141,1134,1133;,
 3;1141,1135,1134;,
 3;1141,1136,1135;,
 3;1141,1137,1136;,
 3;1141,1138,1137;,
 3;1141,1139,1138;;
 
 MeshMaterialList {
  1;
  1152;
  0,
  0,
  0,
  0,
  0,
  0,
  0,
  0,
  0,
  0,
  0,
  0,
  0,
  0,
  0,
  0,
  0,
  0,
  0,
  0,
  0,
  0,
  0,
  0,
  0,
  0,
  0,
  0,
  0,
  0,
  0,
  0,
  0,
  0,
  0,
  0,
  0,
  0,
  0,
  0,
  0,
  0,
  0,
  0,
  0,
  0,
  0,
  0,
  0,
  0,
  0,
  0,
  0,
  0,
  0,
  0,
  0,
  0,
  0,
  0,
  0,
  0,
  0,
  0,
  0,
  0,
  0,
  0,
  0,
  0,
  0,
  0,
  0,
  0,
  0,
  0,
  0,
  0,
  0,
  0,
  0,
  0,
  0,
  0,
  0,
  0,
  0,
  0,
  0,
  0,
  0,
  0,
  0,
  0,
  0,
  0,
  0,
  0,
  0,
  0,
  0,
  0,
  0,
  0,
  0,
  0,
  0,
  0,
  0,
  0,
  0,
  0,
  0,
  0,
  0,
  0,
  0,
  0,
  0,
  0,
  0,
  0,
  0,
  0,
  0,
  0,
  0,
  0,
  0,
  0,
  0,
  0,
  0,
  0,
  0,
  0,
  0,
  0,
  0,
  0,
  0,
  0,
  0,
  0,
  0,
  0,
  0,
  0,
  0,
  0,
  0,
  0,
  0,
  0,
  0,
  0,
  0,
  0,
  0,
  0,
  0,
  0,
  0,
  0,
  0,
  0,
  0,
  0,
  0,
  0,
  0,
  0,
  0,
  0,
  0,
  0,
  0,
  0,
  0,
  0,
  0,
  0,
  0,
  0,
  0,
  0,
  0,
  0,
  0,
  0,
  0,
  0,
  0,
  0,
  0,
  0,
  0,
  0,
  0,
  0,
  0,
  0,
  0,
  0,
  0,
  0,
  0,
  0,
  0,
  0,
  0,
  0,
  0,
  0,
  0,
  0,
  0,
  0,
  0,
  0,
  0,
  0,
  0,
  0,
  0,
  0,
  0,
  0,
  0,
  0,
  0,
  0,
  0,
  0,
  0,
  0,
  0,
  0,
  0,
  0,
  0,
  0,
  0,
  0,
  0,
  0,
  0,
  0,
  0,
  0,
  0,
  0,
  0,
  0,
  0,
  0,
  0,
  0,
  0,
  0,
  0,
  0,
  0,
  0,
  0,
  0,
  0,
  0,
  0,
  0,
  0,
  0,
  0,
  0,
  0,
  0,
  0,
  0,
  0,
  0,
  0,
  0,
  0,
  0,
  0,
  0,
  0,
  0,
  0,
  0,
  0,
  0,
  0,
  0,
  0,
  0,
  0,
  0,
  0,
  0,
  0,
  0,
  0,
  0,
  0,
  0,
  0,
  0,
  0,
  0,
  0,
  0,
  0,
  0,
  0,
  0,
  0,
  0,
  0,
  0,
  0,
  0,
  0,
  0,
  0,
  0,
  0,
  0,
  0,
  0,
  0,
  0,
  0,
  0,
  0,
  0,
  0,
  0,
  0,
  0,
  0,
  0,
  0,
  0,
  0,
  0,
  0,
  0,
  0,
  0,
  0,
  0,
  0,
  0,
  0,
  0,
  0,
  0,
  0,
  0,
  0,
  0,
  0,
  0,
  0,
  0,
  0,
  0,
  0,
  0,
  0,
  0,
  0,
  0,
  0,
  0,
  0,
  0,
  0,
  0,
  0,
  0,
  0,
  0,
  0,
  0,
  0,
  0,
  0,
  0,
  0,
  0,
  0,
  0,
  0,
  0,
  0,
  0,
  0,
  0,
  0,
  0,
  0,
  0,
  0,
  0,
  0,
  0,
  0,
  0,
  0,
  0,
  0,
  0,
  0,
  0,
  0,
  0,
  0,
  0,
  0,
  0,
  0,
  0,
  0,
  0,
  0,
  0,
  0,
  0,
  0,
  0,
  0,
  0,
  0,
  0,
  0,
  0,
  0,
  0,
  0,
  0,
  0,
  0,
  0,
  0,
  0,
  0,
  0,
  0,
  0,
  0,
  0,
  0,
  0,
  0,
  0,
  0,
  0,
  0,
  0,
  0,
  0,
  0,
  0,
  0,
  0,
  0,
  0,
  0,
  0,
  0,
  0,
  0,
  0,
  0,
  0,
  0,
  0,
  0,
  0,
  0,
  0,
  0,
  0,
  0,
  0,
  0,
  0,
  0,
  0,
  0,
  0,
  0,
  0,
  0,
  0,
  0,
  0,
  0,
  0,
  0,
  0,
  0,
  0,
  0,
  0,
  0,
  0,
  0,
  0,
  0,
  0,
  0,
  0,
  0,
  0,
  0,
  0,
  0,
  0,
  0,
  0,
  0,
  0,
  0,
  0,
  0,
  0,
  0,
  0,
  0,
  0,
  0,
  0,
  0,
  0,
  0,
  0,
  0,
  0,
  0,
  0,
  0,
  0,
  0,
  0,
  0,
  0,
  0,
  0,
  0,
  0,
  0,
  0,
  0,
  0,
  0,
  0,
  0,
  0,
  0,
  0,
  0,
  0,
  0,
  0,
  0,
  0,
  0,
  0,
  0,
  0,
  0,
  0,
  0,
  0,
  0,
  0,
  0,
  0,
  0,
  0,
  0,
  0,
  0,
  0,
  0,
  0,
  0,
  0,
  0,
  0,
  0,
  0,
  0,
  0,
  0,
  0,
  0,
  0,
  0,
  0,
  0,
  0,
  0,
  0,
  0,
  0,
  0,
  0,
  0,
  0,
  0,
  0,
  0,
  0,
  0,
  0,
  0,
  0,
  0,
  0,
  0,
  0,
  0,
  0,
  0,
  0,
  0,
  0,
  0,
  0,
  0,
  0,
  0,
  0,
  0,
  0,
  0,
  0,
  0,
  0,
  0,
  0,
  0,
  0,
  0,
  0,
  0,
  0,
  0,
  0,
  0,
  0,
  0,
  0,
  0,
  0,
  0,
  0,
  0,
  0,
  0,
  0,
  0,
  0,
  0,
  0,
  0,
  0,
  0,
  0,
  0,
  0,
  0,
  0,
  0,
  0,
  0,
  0,
  0,
  0,
  0,
  0,
  0,
  0,
  0,
  0,
  0,
  0,
  0,
  0,
  0,
  0,
  0,
  0,
  0,
  0,
  0,
  0,
  0,
  0,
  0,
  0,
  0,
  0,
  0,
  0,
  0,
  0,
  0,
  0,
  0,
  0,
  0,
  0,
  0,
  0,
  0,
  0,
  0,
  0,
  0,
  0,
  0,
  0,
  0,
  0,
  0,
  0,
  0,
  0,
  0,
  0,
  0,
  0,
  0,
  0,
  0,
  0,
  0,
  0,
  0,
  0,
  0,
  0,
  0,
  0,
  0,
  0,
  0,
  0,
  0,
  0,
  0,
  0,
  0,
  0,
  0,
  0,
  0,
  0,
  0,
  0,
  0,
  0,
  0,
  0,
  0,
  0,
  0,
  0,
  0,
  0,
  0,
  0,
  0,
  0,
  0,
  0,
  0,
  0,
  0,
  0,
  0,
  0,
  0,
  0,
  0,
  0,
  0,
  0,
  0,
  0,
  0,
  0,
  0,
  0,
  0,
  0,
  0,
  0,
  0,
  0,
  0,
  0,
  0,
  0,
  0,
  0,
  0,
  0,
  0,
  0,
  0,
  0,
  0,
  0,
  0,
  0,
  0,
  0,
  0,
  0,
  0,
  0,
  0,
  0,
  0,
  0,
  0,
  0,
  0,
  0,
  0,
  0,
  0,
  0,
  0,
  0,
  0,
  0,
  0,
  0,
  0,
  0,
  0,
  0,
  0,
  0,
  0,
  0,
  0,
  0,
  0,
  0,
  0,
  0,
  0,
  0,
  0,
  0,
  0,
  0,
  0,
  0,
  0,
  0,
  0,
  0,
  0,
  0,
  0,
  0,
  0,
  0,
  0,
  0,
  0,
  0,
  0,
  0,
  0,
  0,
  0,
  0,
  0,
  0,
  0,
  0,
  0,
  0,
  0,
  0,
  0,
  0,
  0,
  0,
  0,
  0,
  0,
  0,
  0,
  0,
  0,
  0,
  0,
  0,
  0,
  0,
  0,
  0,
  0,
  0,
  0,
  0,
  0,
  0,
  0,
  0,
  0,
  0,
  0,
  0,
  0,
  0,
  0,
  0,
  0,
  0,
  0,
  0,
  0,
  0,
  0,
  0,
  0,
  0,
  0,
  0,
  0,
  0,
  0,
  0,
  0,
  0,
  0,
  0,
  0,
  0,
  0,
  0,
  0,
  0,
  0,
  0,
  0,
  0,
  0,
  0,
  0,
  0,
  0,
  0,
  0,
  0,
  0,
  0,
  0,
  0,
  0,
  0,
  0,
  0,
  0,
  0,
  0,
  0,
  0,
  0,
  0,
  0,
  0,
  0,
  0,
  0,
  0,
  0,
  0,
  0,
  0,
  0,
  0,
  0,
  0,
  0,
  0,
  0,
  0,
  0,
  0,
  0,
  0,
  0,
  0,
  0,
  0,
  0,
  0,
  0,
  0,
  0,
  0,
  0,
  0,
  0,
  0,
  0,
  0,
  0,
  0,
  0,
  0,
  0,
  0,
  0,
  0,
  0,
  0,
  0,
  0,
  0,
  0,
  0,
  0,
  0,
  0,
  0,
  0,
  0,
  0,
  0,
  0,
  0,
  0,
  0,
  0,
  0,
  0,
  0,
  0,
  0,
  0,
  0,
  0,
  0,
  0,
  0,
  0,
  0,
  0,
  0,
  0,
  0,
  0,
  0,
  0,
  0,
  0,
  0,
  0,
  0,
  0,
  0,
  0,
  0,
  0,
  0,
  0,
  0,
  0,
  0,
  0,
  0,
  0,
  0,
  0,
  0,
  0,
  0,
  0,
  0,
  0,
  0,
  0,
  0,
  0,
  0,
  0,
  0,
  0,
  0,
  0,
  0,
  0,
  0,
  0,
  0,
  0,
  0,
  0,
  0,
  0,
  0,
  0,
  0,
  0,
  0,
  0,
  0,
  0,
  0,
  0,
  0,
  0,
  0,
  0,
  0,
  0,
  0,
  0,
  0,
  0,
  0,
  0,
  0,
  0,
  0,
  0,
  0,
  0,
  0,
  0,
  0,
  0,
  0,
  0,
  0,
  0,
  0,
  0;;
  Material {
   0.000000;0.000000;0.000000;1.000000;;
   0.000000;
   0.000000;0.000000;0.000000;;
   1.000000;1.000000;1.000000;;
   TextureFilename {
    "sky5.png";
   }
  }
 }
 MeshTextureCoords {
  1142;
  0.750000;0.000000;,
  1.020833;0.041667;,
  1.000000;0.041667;,
  1.041667;0.041667;,
  1.062500;0.041667;,
  1.083333;0.041667;,
  1.104167;0.041667;,
  1.125000;0.041667;,
  1.145833;0.041667;,
  1.166667;0.041667;,
  1.187500;0.041667;,
  1.208333;0.041667;,
  1.229167;0.041667;,
  1.250000;0.041667;,
  0.270833;0.041667;,
  0.291667;0.041667;,
  0.312500;0.041667;,
  0.333333;0.041667;,
  0.354167;0.041667;,
  0.375000;0.041667;,
  0.395833;0.041667;,
  0.416667;0.041667;,
  0.437500;0.041667;,
  0.458333;0.041667;,
  0.479167;0.041667;,
  0.500000;0.041667;,
  0.520833;0.041667;,
  0.541667;0.041667;,
  0.562500;0.041667;,
  0.583333;0.041667;,
  0.604167;0.041667;,
  0.625000;0.041667;,
  0.645833;0.041667;,
  0.666667;0.041667;,
  0.687500;0.041667;,
  0.708333;0.041667;,
  0.729167;0.041667;,
  0.750000;0.041667;,
  0.770833;0.041667;,
  0.791667;0.041667;,
  0.812500;0.041667;,
  0.833334;0.041667;,
  0.854167;0.041667;,
  0.875000;0.041667;,
  0.895834;0.041667;,
  0.916667;0.041667;,
  0.937500;0.041667;,
  0.958334;0.041667;,
  0.979167;0.041667;,
  0.000000;0.041667;,
  0.020833;0.041667;,
  0.020833;0.083333;,
  0.000000;0.083333;,
  0.041667;0.041667;,
  0.041667;0.083333;,
  0.062500;0.041667;,
  0.062500;0.083333;,
  0.083333;0.041667;,
  0.083333;0.083333;,
  0.104167;0.041667;,
  0.104167;0.083333;,
  0.125000;0.041667;,
  0.125000;0.083333;,
  0.145833;0.041667;,
  0.145833;0.083333;,
  0.166667;0.041667;,
  0.166667;0.083333;,
  0.187500;0.041667;,
  0.187500;0.083333;,
  0.208333;0.041667;,
  0.208333;0.083333;,
  0.229167;0.041667;,
  0.229167;0.083333;,
  0.250000;0.041667;,
  0.250000;0.083333;,
  0.270833;0.083333;,
  0.291667;0.083333;,
  0.312500;0.083333;,
  0.333333;0.083333;,
  0.354167;0.083333;,
  0.375000;0.083333;,
  0.395833;0.083333;,
  0.416667;0.083333;,
  0.437500;0.083333;,
  0.458333;0.083333;,
  0.479167;0.083333;,
  0.500000;0.083333;,
  0.520833;0.083333;,
  0.541667;0.083333;,
  0.562500;0.083333;,
  0.583333;0.083333;,
  0.604167;0.083333;,
  0.625000;0.083333;,
  0.645833;0.083333;,
  0.666667;0.083333;,
  0.687500;0.083333;,
  0.708333;0.083333;,
  0.729167;0.083333;,
  0.750000;0.083333;,
  0.770833;0.083333;,
  0.791667;0.083333;,
  0.812500;0.083333;,
  0.833334;0.083333;,
  0.854167;0.083333;,
  0.875000;0.083333;,
  0.895834;0.083333;,
  0.916667;0.083333;,
  0.937500;0.083333;,
  0.958334;0.083333;,
  0.979167;0.083333;,
  1.000000;0.083333;,
  0.020833;0.125000;,
  0.000000;0.125000;,
  0.041667;0.125000;,
  0.062500;0.125000;,
  0.083333;0.125000;,
  0.104167;0.125000;,
  0.125000;0.125000;,
  0.145833;0.125000;,
  0.166667;0.125000;,
  0.187500;0.125000;,
  0.208333;0.125000;,
  0.229167;0.125000;,
  0.250000;0.125000;,
  0.270833;0.125000;,
  0.291667;0.125000;,
  0.312500;0.125000;,
  0.333333;0.125000;,
  0.354167;0.125000;,
  0.375000;0.125000;,
  0.395833;0.125000;,
  0.416667;0.125000;,
  0.437500;0.125000;,
  0.458333;0.125000;,
  0.479167;0.125000;,
  0.500000;0.125000;,
  0.520833;0.125000;,
  0.541667;0.125000;,
  0.562500;0.125000;,
  0.583333;0.125000;,
  0.604167;0.125000;,
  0.625000;0.125000;,
  0.645833;0.125000;,
  0.666667;0.125000;,
  0.687500;0.125000;,
  0.708333;0.125000;,
  0.729167;0.125000;,
  0.750000;0.125000;,
  0.770833;0.125000;,
  0.791667;0.125000;,
  0.812500;0.125000;,
  0.833334;0.125000;,
  0.854167;0.125000;,
  0.875000;0.125000;,
  0.895834;0.125000;,
  0.916667;0.125000;,
  0.937500;0.125000;,
  0.958334;0.125000;,
  0.979167;0.125000;,
  1.000000;0.125000;,
  0.020833;0.166667;,
  0.000000;0.166667;,
  0.041667;0.166667;,
  0.062500;0.166667;,
  0.083333;0.166667;,
  0.104167;0.166667;,
  0.125000;0.166667;,
  0.145833;0.166667;,
  0.166667;0.166667;,
  0.187500;0.166667;,
  0.208333;0.166667;,
  0.229167;0.166667;,
  0.250000;0.166667;,
  0.270833;0.166667;,
  0.291667;0.166667;,
  0.312500;0.166667;,
  0.333333;0.166667;,
  0.354167;0.166667;,
  0.375000;0.166667;,
  0.395833;0.166667;,
  0.416667;0.166667;,
  0.437500;0.166667;,
  0.458333;0.166667;,
  0.479167;0.166667;,
  0.500000;0.166667;,
  0.520833;0.166667;,
  0.541667;0.166667;,
  0.562500;0.166667;,
  0.583333;0.166667;,
  0.604167;0.166667;,
  0.625000;0.166667;,
  0.645833;0.166667;,
  0.666667;0.166667;,
  0.687500;0.166667;,
  0.708333;0.166667;,
  0.729167;0.166667;,
  0.750000;0.166667;,
  0.770833;0.166667;,
  0.791667;0.166667;,
  0.812500;0.166667;,
  0.833334;0.166667;,
  0.854167;0.166667;,
  0.875000;0.166667;,
  0.895834;0.166667;,
  0.916667;0.166667;,
  0.937500;0.166667;,
  0.958334;0.166667;,
  0.979167;0.166667;,
  1.000000;0.166667;,
  0.020833;0.208333;,
  0.000000;0.208333;,
  0.041667;0.208333;,
  0.062500;0.208333;,
  0.083333;0.208333;,
  0.104167;0.208333;,
  0.125000;0.208333;,
  0.145833;0.208333;,
  0.166667;0.208333;,
  0.187500;0.208333;,
  0.208333;0.208333;,
  0.229167;0.208333;,
  0.250000;0.208333;,
  0.270833;0.208333;,
  0.291667;0.208333;,
  0.312500;0.208333;,
  0.333333;0.208333;,
  0.354167;0.208333;,
  0.375000;0.208333;,
  0.395833;0.208333;,
  0.416667;0.208333;,
  0.437500;0.208333;,
  0.458333;0.208333;,
  0.479167;0.208333;,
  0.500000;0.208333;,
  0.520833;0.208333;,
  0.541667;0.208333;,
  0.562500;0.208333;,
  0.583333;0.208333;,
  0.604167;0.208333;,
  0.625000;0.208333;,
  0.645833;0.208333;,
  0.666667;0.208333;,
  0.687500;0.208333;,
  0.708333;0.208333;,
  0.729167;0.208333;,
  0.750000;0.208333;,
  0.770833;0.208333;,
  0.791667;0.208333;,
  0.812500;0.208333;,
  0.833334;0.208333;,
  0.854167;0.208333;,
  0.875000;0.208333;,
  0.895834;0.208333;,
  0.916667;0.208333;,
  0.937500;0.208333;,
  0.958334;0.208333;,
  0.979167;0.208333;,
  1.000000;0.208333;,
  0.020833;0.250000;,
  0.000000;0.250000;,
  0.041667;0.250000;,
  0.062500;0.250000;,
  0.083333;0.250000;,
  0.104167;0.250000;,
  0.125000;0.250000;,
  0.145833;0.250000;,
  0.166667;0.250000;,
  0.187500;0.250000;,
  0.208333;0.250000;,
  0.229167;0.250000;,
  0.250000;0.250000;,
  0.270833;0.250000;,
  0.291667;0.250000;,
  0.312500;0.250000;,
  0.333333;0.250000;,
  0.354167;0.250000;,
  0.375000;0.250000;,
  0.395833;0.250000;,
  0.416667;0.250000;,
  0.437500;0.250000;,
  0.458333;0.250000;,
  0.479167;0.250000;,
  0.500000;0.250000;,
  0.520833;0.250000;,
  0.541667;0.250000;,
  0.562500;0.250000;,
  0.583333;0.250000;,
  0.604167;0.250000;,
  0.625000;0.250000;,
  0.645833;0.250000;,
  0.666667;0.250000;,
  0.687500;0.250000;,
  0.708333;0.250000;,
  0.729167;0.250000;,
  0.750000;0.250000;,
  0.770833;0.250000;,
  0.791667;0.250000;,
  0.812500;0.250000;,
  0.833334;0.250000;,
  0.854167;0.250000;,
  0.875000;0.250000;,
  0.895834;0.250000;,
  0.916667;0.250000;,
  0.937500;0.250000;,
  0.958334;0.250000;,
  0.979167;0.250000;,
  1.000000;0.250000;,
  0.020833;0.291667;,
  0.000000;0.291667;,
  0.041667;0.291667;,
  0.062500;0.291667;,
  0.083333;0.291667;,
  0.104167;0.291667;,
  0.125000;0.291667;,
  0.145833;0.291667;,
  0.166667;0.291667;,
  0.187500;0.291667;,
  0.208333;0.291667;,
  0.229167;0.291667;,
  0.250000;0.291667;,
  0.270833;0.291667;,
  0.291667;0.291667;,
  0.312500;0.291667;,
  0.333333;0.291667;,
  0.354167;0.291667;,
  0.375000;0.291667;,
  0.395833;0.291667;,
  0.416667;0.291667;,
  0.437500;0.291667;,
  0.458333;0.291667;,
  0.479167;0.291667;,
  0.500000;0.291667;,
  0.520833;0.291667;,
  0.541667;0.291667;,
  0.562500;0.291667;,
  0.583333;0.291667;,
  0.604167;0.291667;,
  0.625000;0.291667;,
  0.645833;0.291667;,
  0.666667;0.291667;,
  0.687500;0.291667;,
  0.708333;0.291667;,
  0.729167;0.291667;,
  0.750000;0.291667;,
  0.770833;0.291667;,
  0.791667;0.291667;,
  0.812500;0.291667;,
  0.833334;0.291667;,
  0.854167;0.291667;,
  0.875000;0.291667;,
  0.895834;0.291667;,
  0.916667;0.291667;,
  0.937500;0.291667;,
  0.958334;0.291667;,
  0.979167;0.291667;,
  1.000000;0.291667;,
  0.020833;0.333333;,
  0.000000;0.333333;,
  0.041667;0.333333;,
  0.062500;0.333333;,
  0.083333;0.333333;,
  0.104167;0.333333;,
  0.125000;0.333333;,
  0.145833;0.333333;,
  0.166667;0.333333;,
  0.187500;0.333333;,
  0.208333;0.333333;,
  0.229167;0.333333;,
  0.250000;0.333333;,
  0.270833;0.333333;,
  0.291667;0.333333;,
  0.312500;0.333333;,
  0.333333;0.333333;,
  0.354167;0.333333;,
  0.375000;0.333333;,
  0.395833;0.333333;,
  0.416667;0.333333;,
  0.437500;0.333333;,
  0.458333;0.333333;,
  0.479167;0.333333;,
  0.500000;0.333333;,
  0.520833;0.333333;,
  0.541667;0.333333;,
  0.562500;0.333333;,
  0.583333;0.333333;,
  0.604167;0.333333;,
  0.625000;0.333333;,
  0.645833;0.333333;,
  0.666667;0.333333;,
  0.687500;0.333333;,
  0.708333;0.333333;,
  0.729167;0.333333;,
  0.750000;0.333333;,
  0.770833;0.333333;,
  0.791667;0.333333;,
  0.812500;0.333333;,
  0.833334;0.333333;,
  0.854167;0.333333;,
  0.875000;0.333333;,
  0.895834;0.333333;,
  0.916667;0.333333;,
  0.937500;0.333333;,
  0.958334;0.333333;,
  0.979167;0.333333;,
  1.000000;0.333333;,
  0.020833;0.375000;,
  0.000000;0.375000;,
  0.041667;0.375000;,
  0.062500;0.375000;,
  0.083333;0.375000;,
  0.104167;0.375000;,
  0.125000;0.375000;,
  0.145833;0.375000;,
  0.166667;0.375000;,
  0.187500;0.375000;,
  0.208333;0.375000;,
  0.229167;0.375000;,
  0.250000;0.375000;,
  0.270833;0.375000;,
  0.291667;0.375000;,
  0.312500;0.375000;,
  0.333333;0.375000;,
  0.354167;0.375000;,
  0.375000;0.375000;,
  0.395833;0.375000;,
  0.416667;0.375000;,
  0.437500;0.375000;,
  0.458333;0.375000;,
  0.479167;0.375000;,
  0.500000;0.375000;,
  0.520833;0.375000;,
  0.541667;0.375000;,
  0.562500;0.375000;,
  0.583333;0.375000;,
  0.604167;0.375000;,
  0.625000;0.375000;,
  0.645833;0.375000;,
  0.666667;0.375000;,
  0.687500;0.375000;,
  0.708333;0.375000;,
  0.729167;0.375000;,
  0.750000;0.375000;,
  0.770833;0.375000;,
  0.791667;0.375000;,
  0.812500;0.375000;,
  0.833334;0.375000;,
  0.854167;0.375000;,
  0.875000;0.375000;,
  0.895834;0.375000;,
  0.916667;0.375000;,
  0.937500;0.375000;,
  0.958334;0.375000;,
  0.979167;0.375000;,
  1.000000;0.375000;,
  0.020833;0.416667;,
  0.000000;0.416667;,
  0.041667;0.416667;,
  0.062500;0.416667;,
  0.083333;0.416667;,
  0.104167;0.416667;,
  0.125000;0.416667;,
  0.145833;0.416667;,
  0.166667;0.416667;,
  0.187500;0.416667;,
  0.208333;0.416667;,
  0.229167;0.416667;,
  0.250000;0.416667;,
  0.270833;0.416667;,
  0.291667;0.416667;,
  0.312500;0.416667;,
  0.333333;0.416667;,
  0.354167;0.416667;,
  0.375000;0.416667;,
  0.395833;0.416667;,
  0.416667;0.416667;,
  0.437500;0.416667;,
  0.458333;0.416667;,
  0.479167;0.416667;,
  0.500000;0.416667;,
  0.520833;0.416667;,
  0.541667;0.416667;,
  0.562500;0.416667;,
  0.583333;0.416667;,
  0.604167;0.416667;,
  0.625000;0.416667;,
  0.645833;0.416667;,
  0.666667;0.416667;,
  0.687500;0.416667;,
  0.708333;0.416667;,
  0.729167;0.416667;,
  0.750000;0.416667;,
  0.770833;0.416667;,
  0.791667;0.416667;,
  0.812500;0.416667;,
  0.833334;0.416667;,
  0.854167;0.416667;,
  0.875000;0.416667;,
  0.895834;0.416667;,
  0.916667;0.416667;,
  0.937500;0.416667;,
  0.958334;0.416667;,
  0.979167;0.416667;,
  1.000000;0.416667;,
  0.020833;0.458333;,
  0.000000;0.458333;,
  0.041667;0.458333;,
  0.062500;0.458333;,
  0.083333;0.458333;,
  0.104167;0.458333;,
  0.125000;0.458333;,
  0.145833;0.458333;,
  0.166667;0.458333;,
  0.187500;0.458333;,
  0.208333;0.458333;,
  0.229167;0.458333;,
  0.250000;0.458333;,
  0.270833;0.458333;,
  0.291667;0.458333;,
  0.312500;0.458333;,
  0.333333;0.458333;,
  0.354167;0.458333;,
  0.375000;0.458333;,
  0.395833;0.458333;,
  0.416667;0.458333;,
  0.437500;0.458333;,
  0.458333;0.458333;,
  0.479167;0.458333;,
  0.500000;0.458333;,
  0.520833;0.458333;,
  0.541667;0.458333;,
  0.562500;0.458333;,
  0.583333;0.458333;,
  0.604167;0.458333;,
  0.625000;0.458333;,
  0.645833;0.458333;,
  0.666667;0.458333;,
  0.687500;0.458333;,
  0.708333;0.458333;,
  0.729167;0.458333;,
  0.750000;0.458333;,
  0.770833;0.458333;,
  0.791667;0.458333;,
  0.812500;0.458333;,
  0.833334;0.458333;,
  0.854167;0.458333;,
  0.875000;0.458333;,
  0.895834;0.458333;,
  0.916667;0.458333;,
  0.937500;0.458333;,
  0.958334;0.458333;,
  0.979167;0.458333;,
  1.000000;0.458333;,
  0.020833;0.500000;,
  0.000000;0.500000;,
  0.041667;0.500000;,
  0.062500;0.500000;,
  0.083333;0.500000;,
  0.104167;0.500000;,
  0.125000;0.500000;,
  0.145833;0.500000;,
  0.166667;0.500000;,
  0.187500;0.500000;,
  0.208333;0.500000;,
  0.229167;0.500000;,
  0.250000;0.500000;,
  0.270833;0.500000;,
  0.291667;0.500000;,
  0.312500;0.500000;,
  0.333333;0.500000;,
  0.354167;0.500000;,
  0.375000;0.500000;,
  0.395833;0.500000;,
  0.416667;0.500000;,
  0.437500;0.500000;,
  0.458333;0.500000;,
  0.479167;0.500000;,
  0.500000;0.500000;,
  0.520833;0.500000;,
  0.541667;0.500000;,
  0.562500;0.500000;,
  0.583333;0.500000;,
  0.604167;0.500000;,
  0.625000;0.500000;,
  0.645833;0.500000;,
  0.666667;0.500000;,
  0.687500;0.500000;,
  0.708333;0.500000;,
  0.729167;0.500000;,
  0.750000;0.500000;,
  0.770833;0.500000;,
  0.791667;0.500000;,
  0.812500;0.500000;,
  0.833334;0.500000;,
  0.854167;0.500000;,
  0.875000;0.500000;,
  0.895834;0.500000;,
  0.916667;0.500000;,
  0.937500;0.500000;,
  0.958334;0.500000;,
  0.979167;0.500000;,
  1.000000;0.500000;,
  0.020833;0.541667;,
  0.000000;0.541667;,
  0.041667;0.541667;,
  0.062500;0.541667;,
  0.083333;0.541667;,
  0.104167;0.541667;,
  0.125000;0.541667;,
  0.145833;0.541667;,
  0.166667;0.541667;,
  0.187500;0.541667;,
  0.208333;0.541667;,
  0.229167;0.541667;,
  0.250000;0.541667;,
  0.270833;0.541667;,
  0.291667;0.541667;,
  0.312500;0.541667;,
  0.333333;0.541667;,
  0.354167;0.541667;,
  0.375000;0.541667;,
  0.395833;0.541667;,
  0.416667;0.541667;,
  0.437500;0.541667;,
  0.458333;0.541667;,
  0.479167;0.541667;,
  0.500000;0.541667;,
  0.520833;0.541667;,
  0.541667;0.541667;,
  0.562500;0.541667;,
  0.583333;0.541667;,
  0.604167;0.541667;,
  0.625000;0.541667;,
  0.645833;0.541667;,
  0.666667;0.541667;,
  0.687500;0.541667;,
  0.708333;0.541667;,
  0.729167;0.541667;,
  0.750000;0.541667;,
  0.770833;0.541667;,
  0.791667;0.541667;,
  0.812500;0.541667;,
  0.833334;0.541667;,
  0.854167;0.541667;,
  0.875000;0.541667;,
  0.895834;0.541667;,
  0.916667;0.541667;,
  0.937500;0.541667;,
  0.958334;0.541667;,
  0.979167;0.541667;,
  1.000000;0.541667;,
  0.020833;0.583333;,
  0.000000;0.583333;,
  0.041667;0.583333;,
  0.062500;0.583333;,
  0.083333;0.583333;,
  0.104167;0.583333;,
  0.125000;0.583333;,
  0.145833;0.583333;,
  0.166667;0.583333;,
  0.187500;0.583333;,
  0.208333;0.583333;,
  0.229167;0.583333;,
  0.250000;0.583333;,
  0.270833;0.583333;,
  0.291667;0.583333;,
  0.312500;0.583333;,
  0.333333;0.583333;,
  0.354167;0.583333;,
  0.375000;0.583333;,
  0.395833;0.583333;,
  0.416667;0.583333;,
  0.437500;0.583333;,
  0.458333;0.583333;,
  0.479167;0.583333;,
  0.500000;0.583333;,
  0.520833;0.583333;,
  0.541667;0.583333;,
  0.562500;0.583333;,
  0.583333;0.583333;,
  0.604167;0.583333;,
  0.625000;0.583333;,
  0.645833;0.583333;,
  0.666667;0.583333;,
  0.687500;0.583333;,
  0.708333;0.583333;,
  0.729167;0.583333;,
  0.750000;0.583333;,
  0.770833;0.583333;,
  0.791667;0.583333;,
  0.812500;0.583333;,
  0.833334;0.583333;,
  0.854167;0.583333;,
  0.875000;0.583333;,
  0.895834;0.583333;,
  0.916667;0.583333;,
  0.937500;0.583333;,
  0.958334;0.583333;,
  0.979167;0.583333;,
  1.000000;0.583333;,
  0.020833;0.625000;,
  0.000000;0.625000;,
  0.041667;0.625000;,
  0.062500;0.625000;,
  0.083333;0.625000;,
  0.104167;0.625000;,
  0.125000;0.625000;,
  0.145833;0.625000;,
  0.166667;0.625000;,
  0.187500;0.625000;,
  0.208333;0.625000;,
  0.229167;0.625000;,
  0.250000;0.625000;,
  0.270833;0.625000;,
  0.291667;0.625000;,
  0.312500;0.625000;,
  0.333333;0.625000;,
  0.354167;0.625000;,
  0.375000;0.625000;,
  0.395833;0.625000;,
  0.416667;0.625000;,
  0.437500;0.625000;,
  0.458333;0.625000;,
  0.479167;0.625000;,
  0.500000;0.625000;,
  0.520833;0.625000;,
  0.541667;0.625000;,
  0.562500;0.625000;,
  0.583333;0.625000;,
  0.604167;0.625000;,
  0.625000;0.625000;,
  0.645833;0.625000;,
  0.666667;0.625000;,
  0.687500;0.625000;,
  0.708333;0.625000;,
  0.729167;0.625000;,
  0.750000;0.625000;,
  0.770833;0.625000;,
  0.791667;0.625000;,
  0.812500;0.625000;,
  0.833334;0.625000;,
  0.854167;0.625000;,
  0.875000;0.625000;,
  0.895834;0.625000;,
  0.916667;0.625000;,
  0.937500;0.625000;,
  0.958334;0.625000;,
  0.979167;0.625000;,
  1.000000;0.625000;,
  0.020833;0.666667;,
  0.000000;0.666667;,
  0.041667;0.666667;,
  0.062500;0.666667;,
  0.083333;0.666667;,
  0.104167;0.666667;,
  0.125000;0.666667;,
  0.145833;0.666667;,
  0.166667;0.666667;,
  0.187500;0.666667;,
  0.208333;0.666667;,
  0.229167;0.666667;,
  0.250000;0.666667;,
  0.270833;0.666667;,
  0.291667;0.666667;,
  0.312500;0.666667;,
  0.333333;0.666667;,
  0.354167;0.666667;,
  0.375000;0.666667;,
  0.395833;0.666667;,
  0.416667;0.666667;,
  0.437500;0.666667;,
  0.458333;0.666667;,
  0.479167;0.666667;,
  0.500000;0.666667;,
  0.520833;0.666667;,
  0.541667;0.666667;,
  0.562500;0.666667;,
  0.583333;0.666667;,
  0.604167;0.666667;,
  0.625000;0.666667;,
  0.645833;0.666667;,
  0.666667;0.666667;,
  0.687500;0.666667;,
  0.708333;0.666667;,
  0.729167;0.666667;,
  0.750000;0.666667;,
  0.770833;0.666667;,
  0.791667;0.666667;,
  0.812500;0.666667;,
  0.833334;0.666667;,
  0.854167;0.666667;,
  0.875000;0.666667;,
  0.895834;0.666667;,
  0.916667;0.666667;,
  0.937500;0.666667;,
  0.958334;0.666667;,
  0.979167;0.666667;,
  1.000000;0.666667;,
  0.020833;0.708333;,
  0.000000;0.708333;,
  0.041667;0.708333;,
  0.062500;0.708333;,
  0.083333;0.708333;,
  0.104167;0.708333;,
  0.125000;0.708333;,
  0.145833;0.708333;,
  0.166667;0.708333;,
  0.187500;0.708333;,
  0.208333;0.708333;,
  0.229167;0.708333;,
  0.250000;0.708333;,
  0.270833;0.708333;,
  0.291667;0.708333;,
  0.312500;0.708333;,
  0.333333;0.708333;,
  0.354167;0.708333;,
  0.375000;0.708333;,
  0.395833;0.708333;,
  0.416667;0.708333;,
  0.437500;0.708333;,
  0.458333;0.708333;,
  0.479167;0.708333;,
  0.500000;0.708333;,
  0.520833;0.708333;,
  0.541667;0.708333;,
  0.562500;0.708333;,
  0.583333;0.708333;,
  0.604167;0.708333;,
  0.625000;0.708333;,
  0.645833;0.708333;,
  0.666667;0.708333;,
  0.687500;0.708333;,
  0.708333;0.708333;,
  0.729167;0.708333;,
  0.750000;0.708333;,
  0.770833;0.708333;,
  0.791667;0.708333;,
  0.812500;0.708333;,
  0.833334;0.708333;,
  0.854167;0.708333;,
  0.875000;0.708333;,
  0.895834;0.708333;,
  0.916667;0.708333;,
  0.937500;0.708333;,
  0.958334;0.708333;,
  0.979167;0.708333;,
  1.000000;0.708333;,
  0.020833;0.750000;,
  0.000000;0.750000;,
  0.041667;0.750000;,
  0.062500;0.750000;,
  0.083333;0.750000;,
  0.104167;0.750000;,
  0.125000;0.750000;,
  0.145833;0.750000;,
  0.166667;0.750000;,
  0.187500;0.750000;,
  0.208333;0.750000;,
  0.229167;0.750000;,
  0.250000;0.750000;,
  0.270833;0.750000;,
  0.291667;0.750000;,
  0.312500;0.750000;,
  0.333333;0.750000;,
  0.354167;0.750000;,
  0.375000;0.750000;,
  0.395833;0.750000;,
  0.416667;0.750000;,
  0.437500;0.750000;,
  0.458333;0.750000;,
  0.479167;0.750000;,
  0.500000;0.750000;,
  0.520833;0.750000;,
  0.541667;0.750000;,
  0.562500;0.750000;,
  0.583333;0.750000;,
  0.604167;0.750000;,
  0.625000;0.750000;,
  0.645833;0.750000;,
  0.666667;0.750000;,
  0.687500;0.750000;,
  0.708333;0.750000;,
  0.729167;0.750000;,
  0.750000;0.750000;,
  0.770833;0.750000;,
  0.791667;0.750000;,
  0.812500;0.750000;,
  0.833334;0.750000;,
  0.854167;0.750000;,
  0.875000;0.750000;,
  0.895834;0.750000;,
  0.916667;0.750000;,
  0.937500;0.750000;,
  0.958334;0.750000;,
  0.979167;0.750000;,
  1.000000;0.750000;,
  0.020833;0.791667;,
  0.000000;0.791667;,
  0.041667;0.791667;,
  0.062500;0.791667;,
  0.083333;0.791667;,
  0.104167;0.791667;,
  0.125000;0.791667;,
  0.145833;0.791667;,
  0.166667;0.791667;,
  0.187500;0.791667;,
  0.208333;0.791667;,
  0.229167;0.791667;,
  0.250000;0.791667;,
  0.270833;0.791667;,
  0.291667;0.791667;,
  0.312500;0.791667;,
  0.333333;0.791667;,
  0.354167;0.791667;,
  0.375000;0.791667;,
  0.395833;0.791667;,
  0.416667;0.791667;,
  0.437500;0.791667;,
  0.458333;0.791667;,
  0.479167;0.791667;,
  0.500000;0.791667;,
  0.520833;0.791667;,
  0.541667;0.791667;,
  0.562500;0.791667;,
  0.583333;0.791667;,
  0.604167;0.791667;,
  0.625000;0.791667;,
  0.645833;0.791667;,
  0.666667;0.791667;,
  0.687500;0.791667;,
  0.708333;0.791667;,
  0.729167;0.791667;,
  0.750000;0.791667;,
  0.770833;0.791667;,
  0.791667;0.791667;,
  0.812500;0.791667;,
  0.833334;0.791667;,
  0.854167;0.791667;,
  0.875000;0.791667;,
  0.895834;0.791667;,
  0.916667;0.791667;,
  0.937500;0.791667;,
  0.958334;0.791667;,
  0.979167;0.791667;,
  1.000000;0.791667;,
  0.020833;0.833333;,
  0.000000;0.833333;,
  0.041667;0.833333;,
  0.062500;0.833333;,
  0.083333;0.833333;,
  0.104167;0.833333;,
  0.125000;0.833333;,
  0.145833;0.833333;,
  0.166667;0.833333;,
  0.187500;0.833333;,
  0.208333;0.833333;,
  0.229167;0.833333;,
  0.250000;0.833333;,
  0.270833;0.833333;,
  0.291667;0.833333;,
  0.312500;0.833333;,
  0.333333;0.833333;,
  0.354167;0.833333;,
  0.375000;0.833333;,
  0.395833;0.833333;,
  0.416667;0.833333;,
  0.437500;0.833333;,
  0.458333;0.833333;,
  0.479167;0.833333;,
  0.500000;0.833333;,
  0.520833;0.833333;,
  0.541667;0.833333;,
  0.562500;0.833333;,
  0.583333;0.833333;,
  0.604167;0.833333;,
  0.625000;0.833333;,
  0.645833;0.833333;,
  0.666667;0.833333;,
  0.687500;0.833333;,
  0.708333;0.833333;,
  0.729167;0.833333;,
  0.750000;0.833333;,
  0.770833;0.833333;,
  0.791667;0.833333;,
  0.812500;0.833333;,
  0.833334;0.833333;,
  0.854167;0.833333;,
  0.875000;0.833333;,
  0.895834;0.833333;,
  0.916667;0.833333;,
  0.937500;0.833333;,
  0.958334;0.833333;,
  0.979167;0.833333;,
  1.000000;0.833333;,
  0.020833;0.875000;,
  0.000000;0.875000;,
  0.041667;0.875000;,
  0.062500;0.875000;,
  0.083333;0.875000;,
  0.104167;0.875000;,
  0.125000;0.875000;,
  0.145833;0.875000;,
  0.166667;0.875000;,
  0.187500;0.875000;,
  0.208333;0.875000;,
  0.229167;0.875000;,
  0.250000;0.875000;,
  0.270833;0.875000;,
  0.291667;0.875000;,
  0.312500;0.875000;,
  0.333333;0.875000;,
  0.354167;0.875000;,
  0.375000;0.875000;,
  0.395833;0.875000;,
  0.416667;0.875000;,
  0.437500;0.875000;,
  0.458333;0.875000;,
  0.479167;0.875000;,
  0.500000;0.875000;,
  0.520833;0.875000;,
  0.541667;0.875000;,
  0.562500;0.875000;,
  0.583333;0.875000;,
  0.604167;0.875000;,
  0.625000;0.875000;,
  0.645833;0.875000;,
  0.666667;0.875000;,
  0.687500;0.875000;,
  0.708333;0.875000;,
  0.729167;0.875000;,
  0.750000;0.875000;,
  0.770833;0.875000;,
  0.791667;0.875000;,
  0.812500;0.875000;,
  0.833334;0.875000;,
  0.854167;0.875000;,
  0.875000;0.875000;,
  0.895834;0.875000;,
  0.916667;0.875000;,
  0.937500;0.875000;,
  0.958334;0.875000;,
  0.979167;0.875000;,
  1.000000;0.875000;,
  0.020833;0.916667;,
  0.000000;0.916667;,
  0.041667;0.916667;,
  0.062500;0.916667;,
  0.083333;0.916667;,
  0.104167;0.916667;,
  0.125000;0.916667;,
  0.145833;0.916667;,
  0.166667;0.916667;,
  0.187500;0.916667;,
  0.208333;0.916667;,
  0.229167;0.916667;,
  0.250000;0.916667;,
  0.270833;0.916667;,
  0.291667;0.916667;,
  0.312500;0.916667;,
  0.333333;0.916667;,
  0.354167;0.916667;,
  0.375000;0.916667;,
  0.395833;0.916667;,
  0.416667;0.916667;,
  0.437500;0.916667;,
  0.458333;0.916667;,
  0.479167;0.916667;,
  0.500000;0.916667;,
  0.520833;0.916667;,
  0.541667;0.916667;,
  0.562500;0.916667;,
  0.583333;0.916667;,
  0.604167;0.916667;,
  0.625000;0.916667;,
  0.645833;0.916667;,
  0.666667;0.916667;,
  0.687500;0.916667;,
  0.708333;0.916667;,
  0.729167;0.916667;,
  0.750000;0.916667;,
  0.770833;0.916667;,
  0.791667;0.916667;,
  0.812500;0.916667;,
  0.833334;0.916667;,
  0.854167;0.916667;,
  0.875000;0.916667;,
  0.895834;0.916667;,
  0.916667;0.916667;,
  0.937500;0.916667;,
  0.958334;0.916667;,
  0.979167;0.916667;,
  1.000000;0.916667;,
  0.020833;0.958333;,
  0.000000;0.958333;,
  0.041667;0.958333;,
  0.062500;0.958333;,
  0.083333;0.958333;,
  0.104167;0.958333;,
  0.125000;0.958333;,
  0.145833;0.958333;,
  0.166667;0.958333;,
  0.187500;0.958333;,
  0.208333;0.958333;,
  0.229167;0.958333;,
  0.250000;0.958333;,
  0.270833;0.958333;,
  0.291667;0.958333;,
  0.312500;0.958333;,
  0.333333;0.958333;,
  0.354167;0.958333;,
  0.375000;0.958333;,
  0.395833;0.958333;,
  0.416667;0.958333;,
  0.437500;0.958333;,
  0.458333;0.958333;,
  0.479167;0.958333;,
  0.500000;0.958333;,
  0.520833;0.958333;,
  0.541667;0.958333;,
  0.562500;0.958333;,
  0.583333;0.958333;,
  0.604167;0.958333;,
  0.625000;0.958333;,
  0.645833;0.958333;,
  0.666667;0.958333;,
  0.687500;0.958333;,
  0.708333;0.958333;,
  0.729167;0.958333;,
  0.750000;0.958333;,
  0.770833;0.958333;,
  0.791667;0.958333;,
  0.812500;0.958333;,
  0.833334;0.958333;,
  0.854167;0.958333;,
  0.875000;0.958333;,
  0.895834;0.958333;,
  0.916667;0.958333;,
  0.937500;0.958333;,
  0.958334;0.958333;,
  0.979167;0.958333;,
  1.000000;0.958333;,
  -0.250000;1.000000;,
  0.750000;1.000000;;
 }
}
